dice_new/tb/cgra_core/CS_stage/cta_scheduler/cta_scheduler.vcd
$date
    Jul 17, 2025  11:32:25
$end
$version
    TOOL:	xmsim(64)	22.09-s001
$end
$timescale
    1 ps
$end

$scope module tb_cta_scheduler $end
$var parameter 32 !    MAX_NUM_CTA $end
$var parameter 32 "    PC_WIDTH $end
$var parameter 32 #    CTA_ID_WIDTH $end
$var parameter 32 $    EBLOCK_ID_WIDTH $end
$var parameter 32 %    MAX_EBLOCK $end
$var real     64 &    CLK_PERIOD $end
$var reg       1 '    clk $end
$var reg       1 (    rst_n $end
$var reg       1 )    enable $end
$var reg       4 *    cta_valid [3:0] $end
$var reg       4 +    cta_branch_resolving [3:0] $end
$var reg      256 ,    cta_next_pc [255:0] $end
$var reg       1 -    eblock_commit_valid $end
$var reg       3 .    eblock_commit_id [2:0] $end
$var reg       1 /    schedule_valid $end
$var reg       2 0    schedule_hw_cta_id [1:0] $end
$var reg      64 1    schedule_next_pc [63:0] $end
$var reg       3 2    schedule_eblock_id [2:0] $end
$var reg       1 3    schedule_cta_predicted $end
$var reg       1 4    schedule_ready $end
$var integer  32 5    test_count $end
$var integer  32 6    pass_count $end
$var integer  32 7    fail_count $end
$var reg      64 8    test_pcs[0] [63:0] $end
$var reg      64 9    test_pcs[1] [63:0] $end
$var reg      64 :    test_pcs[2] [63:0] $end
$var reg      64 ;    test_pcs[3] [63:0] $end

$scope module dut $end
$var parameter 32 <    MAX_NUM_CTA $end
$var parameter 32 =    PC_WIDTH $end
$var parameter 32 >    CTA_ID_WIDTH $end
$var parameter 32 ?    EBLOCK_ID_WIDTH $end
$var parameter 32 @    MAX_EBLOCK $end
$var wire      1 A    clk  $end
$var wire      1 B    rst_n  $end
$var wire      1 C    enable  $end
$var wire      4 D    cta_valid [3:0] $end
$var wire      4 E    cta_branch_resolving [3:0] $end
$var wire     256 F    cta_next_pc [255:0] $end
$var wire      1 G    eblock_commit_valid  $end
$var wire      3 H    eblock_commit_id [2:0] $end
$var reg       1 I    schedule_valid $end
$var reg       2 J    schedule_hw_cta_id [1:0] $end
$var reg      64 K    schedule_next_pc [63:0] $end
$var reg       3 L    schedule_eblock_id [2:0] $end
$var reg       1 M    schedule_cta_predicted $end
$var wire      1 N    schedule_ready  $end
$var reg       8 O    eblock_live [7:0] $end
$var reg       3 P    eblock_ptr [2:0] $end
$var reg      64 Q    previous_pc [63:0] $end
$var reg       1 R    pc_history_valid $end
$var reg       2 S    last_dispatched_cta [1:0] $end
$var reg       4 T    priority_match [3:0] $end
$var reg       4 U    non_branch_candidates [3:0] $end
$var reg       4 V    any_valid_candidates [3:0] $end
$var reg       1 W    priority_found $end
$var reg       1 X    non_branch_found $end
$var reg       1 Y    any_valid_found $end
$var reg       2 Z    selected_cta_id [1:0] $end
$var reg       1 [    selection_valid $end
$var reg       1 \    selected_from_branch_resolving $end
$var reg      32 ]    priority_schedule_count [31:0] $end
$var reg      32 ^    non_branch_schedule_count [31:0] $end
$var reg      32 _    any_valid_schedule_count [31:0] $end
$upscope $end


$scope task set_cta_state $end
$var integer  32 `    cta_id $end
$var reg       1 a    valid $end
$var reg       1 b    branch_resolving $end
$var reg      64 c    pc [63:0] $end
$upscope $end


$scope task commit_eblock $end
$var reg       3 d    eid [2:0] $end
$upscope $end


$scope task expect_schedule $end
$var reg       1 e    exp_valid $end
$var reg       2 f    exp_cta_id [1:0] $end
$var reg      64 g    exp_pc [63:0] $end
$var reg       1 h    exp_predicted $end
$upscope $end

$upscope $end

$enddefinitions $end
$dumpvars
b1000 @
b11 ?
b10 >
b1000000 =
b100 <
r2.5 &
b1000 %
b11 $
b10 #
b1000000 "
b100 !
0'
0(
1)
b0 *
b0 +
b0 ,
0-
b0 .
0/
b0 0
b0 1
b0 2
03
14
b0 5
b0 6
b0 7
b1000000000000 8
b10000000000000 9
b11000000000000 :
b100000000000000 ;
0A
0B
1C
b0 D
b0 E
b0 F
0G
b0 H
0I
b0 J
b0 K
b0 L
0M
1N
b0 O
b0 P
b0 Q
0R
b11 S
b0 T
b0 U
b0 V
0W
0X
0Y
b0 Z
0[
0\
b0 ]
b0 ^
b0 _
b0 `
xa
xb
bx c
bx d
xe
bx f
bx g
xh
$end
#1250
1'
1A
#2500
0'
0A
#3750
1'
1A
#5000
0'
0A
#6250
1'
1A
#7500
0'
1(
1B
0A
#8750
1'
1A
#10000
0'
0A
#11250
1'
1A
#12500
0'
0A
#13750
1'
1A
#15000
0'
0e
b1 6
b1 5
0A
#16250
1'
1A
#17500
0'
0(
0B
0A
#18750
1'
1A
#20000
0'
0A
#21250
1'
1A
#22500
0'
1(
1B
0A
#23750
1'
1A
#25000
0'
0A
#26250
1'
1A
#27500
0'
0A
#28750
1'
1A
#30000
0'
1a
0b
b1000000000000 c
b1 *
b1000000000000 ,
b1000000000000 F
b1 D
0A
b1 V
1Y
b1 U
1X
1[
1I
b1000000000000 K
b1000000000000 1
1/
#31250
1'
1A
b1 ^
b1 O
b1 P
b1000000000000 Q
1R
b0 S
b1 L
b1 T
1W
0[
1[
b1 2
#32500
0'
1e
b0 f
b1000000000000 g
0h
b10 6
b10 5
0)
0C
0A
0I
0/
#33750
1'
1A
#35000
0'
0A
#36250
1'
1A
#37500
0'
0(
1)
b0 *
b0 ,
b0 F
b0 D
1C
0B
0A
b0 K
b0 T
0W
b0 V
0Y
b0 U
0X
1I
0[
0I
b0 1
b0 ^
b0 O
b0 P
b0 Q
0R
b11 S
b0 L
b0 2
#38750
1'
1A
#40000
0'
0A
#41250
1'
1A
#42500
0'
1(
1B
0A
#43750
1'
1A
#45000
0'
0A
#46250
1'
1A
#47500
0'
0)
0C
0A
#48750
1'
1A
#50000
0'
b1 *
b1000000000000 ,
b1 `
b10000000000000 c
b11 *
b100000000000000000000000000000000000000000000000000000000000000001000000000000 ,
b10 `
b11000000000000 c
b111 *
b1100000000000000000000000000000000000000000000000000000000000000100000000000000000000000000000000000000000000000000000000000000001000000000000 ,
b1100000000000000000000000000000000000000000000000000000000000000100000000000000000000000000000000000000000000000000000000000000001000000000000 F
b111 D
0A
b111 V
1Y
b111 U
1X
1[
b1000000000000 K
b1000000000000 1
#51250
1'
1A
#52500
0'
1)
1C
0A
1I
1/
#53750
1'
b11 6
b11 5
1A
b1 ^
b1 O
b1 P
b1000000000000 Q
1R
b0 S
b1 L
b1 T
1W
0[
1[
b1 2
#55000
0'
b0 `
b1000000100000 c
b1100000000000000000000000000000000000000000000000000000000000000100000000000000000000000000000000000000000000000000000000000000001000000100000 ,
0)
0C
b1100000000000000000000000000000000000000000000000000000000000000100000000000000000000000000000000000000000000000000000000000000001000000100000 F
0A
0I
b1000000100000 K
b0 T
0W
0[
1[
b1 Z
b10000000000000 K
b1 J
b1 0
b10000000000000 1
0/
#56250
1'
1A
#57500
0'
1)
1C
0A
1I
1/
#58750
1'
b1 f
b10000000000000 g
b100 6
b100 5
1A
b10 ^
b11 O
b10 P
b10000000000000 Q
b1 S
b10 L
b10 T
1W
b0 Z
0[
1[
b1 Z
b10 2
#60000
0'
b1 `
b10000000100000 c
b1100000000000000000000000000000000000000000000000000000000000000100000001000000000000000000000000000000000000000000000000000000001000000100000 ,
0)
0C
b1100000000000000000000000000000000000000000000000000000000000000100000001000000000000000000000000000000000000000000000000000000001000000100000 F
0A
0I
b10000000100000 K
b0 T
0W
b0 Z
0[
1[
b10 Z
b10 J
b11000000000000 K
b10 0
b11000000000000 1
0/
#61250
1'
1A
#62500
0'
1)
1C
0A
1I
1/
#63750
1'
b10 f
b11000000000000 g
b101 6
b101 5
1A
b11 ^
b111 O
b11 P
b11000000000000 Q
b10 S
b11 L
b100 T
1W
b0 Z
0[
1[
b10 Z
b11 2
#65000
0'
b10 `
b11000000100000 c
b1100000010000000000000000000000000000000000000000000000000000000100000001000000000000000000000000000000000000000000000000000000001000000100000 ,
0)
0C
b1100000010000000000000000000000000000000000000000000000000000000100000001000000000000000000000000000000000000000000000000000000001000000100000 F
0A
0I
b11000000100000 K
b0 T
0W
b0 Z
0[
1[
b0 J
b1000000100000 K
b0 0
b1000000100000 1
0/
#66250
1'
1A
#67500
0'
0A
#68750
1'
1A
#70000
0'
0A
#71250
1'
1A
#72500
0'
0(
1)
b0 *
b0 ,
b0 F
b0 D
1C
0B
0A
b0 K
b0 V
0Y
b0 U
0X
1I
0[
0I
b0 1
b0 ^
b0 O
b0 P
b0 Q
0R
b11 S
b0 L
b0 2
#73750
1'
1A
#75000
0'
0A
#76250
1'
1A
#77500
0'
1(
1B
0A
#78750
1'
1A
#80000
0'
0A
#81250
1'
1A
#82500
0'
0A
#83750
1'
1A
#85000
0'
b0 `
b1000000000000 c
b1 *
b1000000000000 ,
b1000000000000 F
b1 D
0A
b1 V
1Y
b1 U
1X
1[
1I
b1000000000000 K
b1000000000000 1
1/
#86250
1'
1A
b1 ^
b1 O
b1 P
b1000000000000 Q
1R
b0 S
b1 L
b1 T
1W
0[
1[
b1 2
#87500
0'
0A
#88750
1'
b0 f
b1000000000000 g
b110 6
b110 5
1A
b1 ]
b11 O
b10 P
b10 L
b10 2
#90000
0'
0)
b1000000100000 c
b1000000100000 ,
b1 `
b10000000000000 c
b11 *
b100000000000000000000000000000000000000000000000000000000000000001000000100000 ,
b10 `
b11000000000000 c
b111 *
b1100000000000000000000000000000000000000000000000000000000000000100000000000000000000000000000000000000000000000000000000000000001000000100000 ,
b11 `
b1000000000000 c
b1111 *
b1000000000000000000000000000000000000000000000000000000000000001100000000000000000000000000000000000000000000000000000000000000100000000000000000000000000000000000000000000000000000000000000001000000100000 ,
b1111 D
b1000000000000000000000000000000000000000000000000000000000000001100000000000000000000000000000000000000000000000000000000000000100000000000000000000000000000000000000000000000000000000000000001000000100000 F
0C
0A
b1111 V
b1111 U
b0 T
0W
b1000 T
1W
b1000000100000 K
0I
0[
1[
b11 Z
b1000000000000 K
b11 J
b11 0
0/
#91250
1'
1A
#92500
0'
1)
1C
0A
1I
1/
#93750
1'
b11 f
b111 6
b111 5
1A
b10 ]
b111 O
b11 P
b11 S
b11 L
b0 Z
0[
1[
b11 Z
b11 2
#95000
0'
0)
0C
0A
0I
0/
#96250
1'
1A
#97500
0'
0A
#98750
1'
1A
#100000
0'
0(
1)
b0 *
b0 ,
b0 F
b0 D
1C
0B
0A
b0 K
b0 T
0W
b0 V
0Y
b0 U
0X
1I
b0 Z
0[
b0 J
0I
b0 0
b0 1
b0 ]
b0 ^
b0 O
b0 P
b0 Q
0R
b0 L
b0 2
#101250
1'
1A
#102500
0'
0A
#103750
1'
1A
#105000
0'
1(
1B
0A
#106250
1'
1A
#107500
0'
0A
#108750
1'
1A
#110000
0'
0A
#111250
1'
1A
#112500
0'
b0 `
1b
b1 *
b1 +
b1000000000000 ,
b1 `
b10000000000000 c
b11 *
b11 +
b100000000000000000000000000000000000000000000000000000000000000001000000000000 ,
b10 `
b11000000000000 c
b111 *
b111 +
b1100000000000000000000000000000000000000000000000000000000000000100000000000000000000000000000000000000000000000000000000000000001000000000000 ,
b11 `
b100000000000000 c
b1111 *
b1111 +
b100000000000000000000000000000000000000000000000000000000000000001100000000000000000000000000000000000000000000000000000000000000100000000000000000000000000000000000000000000000000000000000000001000000000000 ,
b100000000000000000000000000000000000000000000000000000000000000001100000000000000000000000000000000000000000000000000000000000000100000000000000000000000000000000000000000000000000000000000000001000000000000 F
b1111 E
b1111 D
0A
b1111 V
1Y
1[
1\
1I
b1000000000000 K
1M
13
b1000000000000 1
1/
#113750
1'
1A
b1 _
b1 O
b1 P
b1000000000000 Q
1R
b0 S
b1 L
b1 T
1W
0[
0\
1[
1\
b1 2
#115000
0'
0A
#116250
1'
b0 f
1h
b1000 6
b1000 5
1A
b1 ]
b11 O
b10 P
b10 L
b10 2
#117500
0'
0)
0C
0A
0I
0/
#118750
1'
1A
#120000
0'
0A
#121250
1'
1A
#122500
0'
0(
1)
b0 *
b0 +
b0 ,
b0 F
b0 E
b0 D
1C
0B
0A
b0 K
b0 T
0W
0[
0\
1[
b1 Z
b0 V
0Y
1I
0M
b1 J
b0 Z
0[
b0 J
0I
03
b0 1
b0 ]
b0 _
b0 O
b0 P
b0 Q
0R
b11 S
b0 L
b0 2
#123750
1'
1A
#125000
0'
0A
#126250
1'
1A
#127500
0'
1(
1B
0A
#128750
1'
1A
#130000
0'
0A
#131250
1'
1A
#132500
0'
0A
#133750
1'
1A
#135000
0'
b1 `
0b
b10000000000000 c
b10 *
b100000000000000000000000000000000000000000000000000000000000000000000000000000 ,
b10 `
1b
b11000000000000 c
b110 *
b100 +
b1100000000000000000000000000000000000000000000000000000000000000100000000000000000000000000000000000000000000000000000000000000000000000000000 ,
b100 E
b1100000000000000000000000000000000000000000000000000000000000000100000000000000000000000000000000000000000000000000000000000000000000000000000 F
b110 D
0A
b10 U
1X
b110 V
1Y
1[
b1 Z
1I
b10000000000000 K
b1 J
b1 0
b10000000000000 1
1/
#136250
1'
1A
b1 ^
b1 O
b1 P
b10000000000000 Q
1R
b1 S
b1 L
b10 T
1W
b0 Z
0[
1[
b1 Z
b1 2
#137500
0'
0A
#138750
1'
b1 f
b10000000000000 g
0h
b1001 6
b1001 5
1A
b1 ]
b11 O
b10 P
b10 L
b10 2
#140000
0'
0)
0C
0A
0I
0/
#141250
1'
1A
#142500
0'
0A
#143750
1'
1A
#145000
0'
0(
1)
b0 *
b0 +
b0 ,
b0 F
b0 E
b0 D
1C
0B
0A
b0 K
b0 T
0W
b0 Z
0[
1[
b1 Z
b0 U
0X
b0 V
0Y
1I
b0 Z
0[
b0 J
0I
b0 0
b0 1
b0 ]
b0 ^
b0 O
b0 P
b0 Q
0R
b11 S
b0 L
b0 2
#146250
1'
1A
#147500
0'
0A
#148750
1'
1A
#150000
0'
1(
1B
0A
#151250
1'
1A
#152500
0'
0A
#153750
1'
1A
#155000
0'
0A
#156250
1'
1A
#157500
0'
b1 `
0b
b10000000000000 c
b10 *
b100000000000000000000000000000000000000000000000000000000000000000000000000000 ,
b100000000000000000000000000000000000000000000000000000000000000000000000000000 F
b10 D
0A
b10 V
1Y
b10 U
1X
1[
b1 Z
1I
b10000000000000 K
b1 J
b1 0
b10000000000000 1
1/
#158750
1'
1A
b1 ^
b1 O
b1 P
b10000000000000 Q
1R
b1 S
b1 L
b10 T
1W
b0 Z
0[
1[
b1 Z
b1 2
#160000
0'
0A
#161250
1'
b1010 6
b1010 5
1A
b1 ]
b11 O
b10 P
b10 L
b10 2
#162500
0'
0)
b10000000100000 c
b100000001000000000000000000000000000000000000000000000000000000000000000000000 ,
b0 `
b1000000000000 c
b11 *
b100000001000000000000000000000000000000000000000000000000000000001000000000000 ,
b10 `
1b
b10000000000000 c
b111 *
b100 +
b1000000000000000000000000000000000000000000000000000000000000000100000001000000000000000000000000000000000000000000000000000000001000000000000 ,
b100 E
b111 D
b1000000000000000000000000000000000000000000000000000000000000000100000001000000000000000000000000000000000000000000000000000000001000000000000 F
0C
0A
b0 Z
0[
1[
b1 Z
b11 U
b111 V
b0 T
0W
b100 T
1W
b10000000100000 K
0I
b0 Z
0[
1[
b10 Z
1\
b10 J
b10000000000000 K
1M
13
b10 0
0/
#163750
1'
1A
#165000
0'
1)
1C
0A
1I
1/
#166250
1'
b10 f
1h
b1011 6
b1011 5
1A
b10 ]
b111 O
b11 P
b10 S
b11 L
b0 Z
0[
0\
1[
b10 Z
1\
b11 2
#167500
0'
0)
0C
0A
0I
0/
#168750
1'
1A
#170000
0'
0A
#171250
1'
1A
#172500
0'
0(
1)
b0 *
b0 +
b0 ,
b0 F
b0 E
b0 D
1C
0B
0A
b0 K
b0 T
0W
b0 Z
0[
0\
1[
b0 U
0X
b0 V
0Y
1I
b0 J
0M
0[
0I
03
b0 0
b0 1
b0 ]
b0 ^
b0 O
b0 P
b0 Q
0R
b11 S
b0 L
b0 2
#173750
1'
1A
#175000
0'
0A
#176250
1'
1A
#177500
0'
1(
1B
0A
#178750
1'
1A
#180000
0'
0A
#181250
1'
1A
#182500
0'
0A
#183750
1'
1A
#185000
0'
04
b0 `
0b
b1000000000000 c
b1 *
b1000000000000 ,
b1000000000000 F
b1 D
0N
0A
b1 V
1Y
b1 U
1X
1[
1I
b1000000000000 K
b1000000000000 1
1/
#186250
1'
1A
#187500
0'
14
1N
0A
#188750
1'
1A
b1 ^
b1 O
b1 P
b1000000000000 Q
1R
b0 S
b1 L
b1 T
1W
0[
1[
b1 2
#190000
0'
04
0N
0A
#191250
1'
1A
#192500
0'
14
1N
0A
#193750
1'
1A
b1 ]
b11 O
b10 P
b10 L
b10 2
#195000
0'
04
0N
0A
#196250
1'
1A
#197500
0'
14
1N
0A
#198750
1'
1A
b10 ]
b111 O
b11 P
b11 L
b11 2
#200000
0'
04
0N
0A
#201250
1'
1A
#202500
0'
14
1N
0A
#203750
1'
1A
b11 ]
b1111 O
b100 P
b100 L
b100 2
#205000
0'
04
0N
0A
#206250
1'
1A
#207500
0'
14
1N
0A
#208750
1'
1A
b100 ]
b11111 O
b101 P
b101 L
b101 2
#210000
0'
04
0N
0A
#211250
1'
1A
#212500
0'
14
1N
0A
#213750
1'
1A
b101 ]
b111111 O
b110 P
b110 L
b110 2
#215000
0'
04
0N
0A
#216250
1'
1A
#217500
0'
14
1N
0A
#218750
1'
1A
b110 ]
b1111111 O
b111 P
b111 L
b111 2
#220000
0'
04
0N
0A
#221250
1'
1A
#222500
0'
14
1N
0A
#223750
1'
1A
b111 ]
b11111111 O
b0 P
0I
b0 L
b0 2
0/
#225000
0'
04
0N
0A
#226250
1'
1A
#227500
0'
14
0e
bx f
bx g
xh
b1100 6
b1100 5
1N
0A
#228750
1'
1A
#230000
0'
0)
b0 d
0C
0A
#231250
1'
1A
#232500
0'
1-
1G
0A
#233750
1'
1A
b11111110 O
#235000
0'
0-
0G
0A
#236250
1'
1A
#237500
0'
1)
1C
0A
1I
1/
#238750
1'
1e
b0 f
b1000000000000 g
0h
b1101 6
b1101 5
1A
b1000 ]
b11111111 O
b1 P
0I
b1 L
b1 2
0/
#240000
0'
0)
0C
0A
#241250
1'
1A
#242500
0'
0A
#243750
1'
1A
#245000
0'
0(
1)
b0 *
b0 ,
b0 F
b0 D
1C
0B
0A
b0 K
b0 T
0W
b0 V
0Y
b0 U
0X
0[
b0 1
b0 ]
b0 ^
b0 O
b0 P
b0 Q
0R
b11 S
b0 L
b0 2
#246250
1'
1A
#247500
0'
0A
#248750
1'
1A
#250000
0'
1(
1B
0A
#251250
1'
1A
#252500
0'
0A
#253750
1'
1A
#255000
0'
0A
#256250
1'
1A
#257500
0'
0)
b1 `
b10000000000000 c
b10 *
b100000000000000000000000000000000000000000000000000000000000000000000000000000 ,
b100000000000000000000000000000000000000000000000000000000000000000000000000000 F
b10 D
0C
0A
b10 V
1Y
b10 U
1X
1[
b1 Z
b10000000000000 K
b1 J
b1 0
b10000000000000 1
#258750
1'
1A
#260000
0'
04
0N
0A
#261250
1'
1A
#262500
0'
1)
1C
0A
1I
1/
#263750
1'
b1110 6
b1110 5
1A
#265000
0'
14
b1 f
b10000000000000 g
b1111 6
b1111 5
1N
0A
#266250
1'
1A
b1 ^
b1 O
b1 P
b10000000000000 Q
1R
b1 S
b1 L
b10 T
1W
b0 Z
0[
1[
b1 Z
b1 2
#267500
0'
0)
0C
0A
0I
0/
#268750
1'
1A
#270000
0'
0A
#271250
1'
1A
#272500
0'
0(
1)
b0 *
b0 ,
b0 F
b0 D
1C
0B
0A
b0 K
b0 T
0W
b0 V
0Y
b0 U
0X
1I
b0 Z
0[
b0 J
0I
b0 0
b0 1
b0 ^
b0 O
b0 P
b0 Q
0R
b11 S
b0 L
b0 2
#273750
1'
1A
#275000
0'
0A
#276250
1'
1A
#277500
0'
1(
1B
0A
#278750
1'
1A
#280000
0'
0A
#281250
1'
1A
#282500
0'
0A
#283750
1'
1A
#285000
0'
0)
b10 *
b100000000000000000000000000000000000000000000000000000000000000000000000000000 ,
b100000000000000000000000000000000000000000000000000000000000000000000000000000 F
b10 D
0C
0A
b10 V
1Y
b10 U
1X
1[
b1 Z
b10000000000000 K
b1 J
b1 0
b10000000000000 1
#286250
1'
1A
#287500
0'
1)
1C
0A
1I
1/
#288750
1'
b10000 6
b10000 5
1A
b1 ^
b1 O
b1 P
b10000000000000 Q
1R
b1 S
b1 L
b10 T
1W
b0 Z
0[
1[
b1 Z
b1 2
#290000
0'
0)
b0 `
b1000000000000 c
b11 *
b100000000000000000000000000000000000000000000000000000000000000001000000000000 ,
b1 `
1b
b10000000000000 c
b10 +
b10 `
0b
b11000000000000 c
b111 *
b1100000000000000000000000000000000000000000000000000000000000000100000000000000000000000000000000000000000000000000000000000000001000000000000 ,
b10 E
b1100000000000000000000000000000000000000000000000000000000000000100000000000000000000000000000000000000000000000000000000000000001000000000000 F
b111 D
0C
0A
b0 Z
0[
1[
b1 Z
1\
b101 U
b0 T
0W
b10 T
1W
b111 V
0I
1M
b0 Z
0[
0\
1[
b1 Z
1\
13
0/
#291250
1'
1A
#292500
0'
1)
1C
0A
1I
1/
#293750
1'
1h
b10001 6
b10001 5
1A
b1 ]
b11 O
b10 P
b10 L
b10 2
#295000
0'
0)
0C
0A
0I
0/
#296250
1'
1A
#297500
0'
0(
1)
b0 *
b0 +
b0 ,
b0 F
b0 E
b0 D
1C
0B
0A
b0 K
b0 T
0W
b0 Z
0[
0\
1[
b10 Z
b0 U
0X
b0 V
0Y
1I
b10 J
0M
b0 Z
0[
b0 J
0I
03
b0 0
b0 1
b0 ]
b0 ^
b0 O
b0 P
b0 Q
0R
b11 S
b0 L
b0 2
#298750
1'
1A
#300000
0'
0A
#301250
1'
1A
#302500
0'
1(
1B
0A
#303750
1'
1A
#305000
0'
0A
#306250
1'
1A
#307500
0'
0A
#308750
1'
1A
#310000
0'
0)
b0 `
b1000000000000 c
b1 *
b1000000000000 ,
b1000000000000 F
b1 D
0C
0A
b1 V
1Y
b1 U
1X
1[
b1000000000000 K
b1000000000000 1
#311250
1'
1A
#312500
0'
0A
#313750
1'
0e
bx f
bx g
xh
b10010 6
b10010 5
1A
#315000
0'
1)
1C
0A
1I
1/
#316250
1'
1e
b0 f
b1000000000000 g
0h
b10011 6
b10011 5
1A
b1 ^
b1 O
b1 P
b1000000000000 Q
1R
b0 S
b1 L
b1 T
1W
0[
1[
b1 2
#317500
0'
0(
b0 *
b0 ,
b0 F
b0 D
0B
0A
b0 K
b0 T
0W
b0 V
0Y
b0 U
0X
0[
0I
0/
b0 1
b0 ^
b0 O
b0 P
b0 Q
0R
b11 S
b0 L
b0 2
#318750
1'
1A
#320000
0'
0A
#321250
1'
1A
#322500
0'
1(
1B
0A
#323750
1'
1A
#325000
0'
0A
#326250
1'
1A
#327500
0'
0A
#328750
1'
1A
#330000
0'
0)
0a
b1000000000000 ,
b1 `
b10000000000000 c
b100000000000000000000000000000000000000000000000000000000000000001000000000000 ,
b10 `
b11000000000000 c
b1100000000000000000000000000000000000000000000000000000000000000100000000000000000000000000000000000000000000000000000000000000001000000000000 ,
b11 `
b100000000000000 c
b100000000000000000000000000000000000000000000000000000000000000001100000000000000000000000000000000000000000000000000000000000000100000000000000000000000000000000000000000000000000000000000000001000000000000 ,
b100000000000000000000000000000000000000000000000000000000000000001100000000000000000000000000000000000000000000000000000000000000100000000000000000000000000000000000000000000000000000000000000001000000000000 F
0C
0A
#331250
1'
1A
#332500
0'
1)
1C
0A
#333750
1'
0e
bx f
bx g
xh
b10100 6
b10100 5
