dice_new/tb/cgra_core/CS_stage/active_cta_table/active_cta_table.vcd
$date
    Jul 17, 2025  11:21:17
$end
$version
    TOOL:	xmsim(64)	22.09-s001
$end
$timescale
    1 ps
$end

$scope module tb_active_cta_table $end
$var parameter 32 !    MAX_NUM_CTA $end
$var parameter 32 "    CTA_INDEX_WIDTH $end
$var parameter 32 #    THREAD_WIDTH $end
$var real     64 $    CLK_PERIOD $end
$var reg       1 %    clk $end
$var reg       1 &    rst_n $end
$var reg       1 '    pop_valid $end
$var reg       2 (    pop_hw_cta_id [1:0] $end
$var reg       1 )    add_valid $end
$var reg      16 *    add_cta_id_x [15:0] $end
$var reg      16 +    add_cta_id_y [15:0] $end
$var reg      16 ,    add_cta_id_z [15:0] $end
$var reg      16 -    add_grid_size_x [15:0] $end
$var reg      16 .    add_grid_size_y [15:0] $end
$var reg      16 /    add_grid_size_z [15:0] $end
$var reg      11 0    add_cta_size_x [10:0] $end
$var reg      11 1    add_cta_size_y [10:0] $end
$var reg      11 2    add_cta_size_z [10:0] $end
$var reg      11 3    add_cta_size [10:0] $end
$var reg      16 4    add_kernel_id [15:0] $end
$var reg       1 5    add_ready $end
$var reg       1 6    out_valid $end
$var reg      16 7    out_cta_id_x [15:0] $end
$var reg      16 8    out_cta_id_y [15:0] $end
$var reg      16 9    out_cta_id_z [15:0] $end
$var reg      11 :    out_cta_size [10:0] $end
$var reg      16 ;    out_kernel_id [15:0] $end
$var reg       1 <    out_ready $end
$var reg       4 =    cta_valid [3:0] $end
$var reg      64 >    cta_id_x [63:0] $end
$var reg      64 ?    cta_id_y [63:0] $end
$var reg      64 @    cta_id_z [63:0] $end
$var reg      64 A    grid_size_x [63:0] $end
$var reg      64 B    grid_size_y [63:0] $end
$var reg      64 C    grid_size_z [63:0] $end
$var reg      44 D    cta_size_x [43:0] $end
$var reg      44 E    cta_size_y [43:0] $end
$var reg      44 F    cta_size_z [43:0] $end
$var reg      44 G    cta_size [43:0] $end
$var reg      64 H    kernel_id [63:0] $end
$var reg       1 I    full $end
$var reg       2 J    next_empty_cta_index [1:0] $end
$var integer  32 K    test_count $end
$var integer  32 L    pass_count $end
$var integer  32 M    fail_count $end
$var reg      156 N    test_ctas[0] [155:0] $end
$var reg      156 O    test_ctas[1] [155:0] $end
$var reg      156 P    test_ctas[2] [155:0] $end
$var reg      156 Q    test_ctas[3] [155:0] $end
$var reg      156 R    test_ctas[4] [155:0] $end

$scope module dut $end
$var parameter 32 S    MAX_NUM_CTA $end
$var parameter 32 T    CTA_INDEX_WIDTH $end
$var parameter 32 U    THREAD_WIDTH $end
$var wire      1 V    clk  $end
$var wire      1 W    rst_n  $end
$var wire      1 X    pop_valid  $end
$var wire      2 Y    pop_hw_cta_id [1:0] $end
$var wire      1 Z    add_valid  $end
$var wire     16 [    add_cta_id_x [15:0] $end
$var wire     16 \    add_cta_id_y [15:0] $end
$var wire     16 ]    add_cta_id_z [15:0] $end
$var wire     16 ^    add_grid_size_x [15:0] $end
$var wire     16 _    add_grid_size_y [15:0] $end
$var wire     16 `    add_grid_size_z [15:0] $end
$var wire     11 a    add_cta_size_x [10:0] $end
$var wire     11 b    add_cta_size_y [10:0] $end
$var wire     11 c    add_cta_size_z [10:0] $end
$var wire     11 d    add_cta_size [10:0] $end
$var wire     16 e    add_kernel_id [15:0] $end
$var reg       1 f    add_ready $end
$var reg       1 g    out_valid $end
$var reg      16 h    out_cta_id_x [15:0] $end
$var reg      16 i    out_cta_id_y [15:0] $end
$var reg      16 j    out_cta_id_z [15:0] $end
$var reg      11 k    out_cta_size [10:0] $end
$var reg      16 l    out_kernel_id [15:0] $end
$var wire      1 m    out_ready  $end
$var reg       4 n    cta_valid [3:0] $end
$var reg      64 o    cta_id_x [63:0] $end
$var reg      64 p    cta_id_y [63:0] $end
$var reg      64 q    cta_id_z [63:0] $end
$var reg      64 r    grid_size_x [63:0] $end
$var reg      64 s    grid_size_y [63:0] $end
$var reg      64 t    grid_size_z [63:0] $end
$var reg      44 u    cta_size_x [43:0] $end
$var reg      44 v    cta_size_y [43:0] $end
$var reg      44 w    cta_size_z [43:0] $end
$var reg      44 x    cta_size [43:0] $end
$var reg      64 y    kernel_id [63:0] $end
$var reg       1 z    full $end
$var reg       2 {    next_empty_cta_index [1:0] $end
$var reg      161 |    cta_table[3] [160:0] $end
$var reg      161 }    cta_table[2] [160:0] $end
$var reg      161 ~    cta_table[1] [160:0] $end
$var reg      161 !!   cta_table[0] [160:0] $end
$var reg       1 "!   output_buffer_valid $end
$var reg      16 #!   output_buffer_cta_id_x [15:0] $end
$var reg      16 $!   output_buffer_cta_id_y [15:0] $end
$var reg      16 %!   output_buffer_cta_id_z [15:0] $end
$var reg      11 &!   output_buffer_cta_size [10:0] $end
$var reg      16 '!   output_buffer_kernel_id [15:0] $end
$var reg       2 (!   empty_index [1:0] $end
$var reg       1 )!   found_empty $end
$var reg       3 *!   entries_needed [2:0] $end
$var reg       1 +!   pop_this_cycle $end
$var reg       1 ,!   output_consumed_this_cycle $end

$scope begin unmblk3 $end
$var reg       3 -!   entries_to_clear [2:0] $end
$upscope $end


$scope begin unmblk4 $end
$var reg      32 .!   calculated_size [31:0] $end
$upscope $end

$upscope $end


$scope task add_cta $end
$var integer  32 /!   index $end
$upscope $end


$scope task pop_cta $end
$var reg       2 0!   cta_id [1:0] $end
$upscope $end


$scope task check_output $end
$var reg      156 1!   expected [155:0] $end
$upscope $end


$scope task pop_and_check $end
$var reg       2 2!   cta_id [1:0] $end
$var reg      156 3!   expected [155:0] $end
$upscope $end

$upscope $end

$enddefinitions $end
$dumpvars
b100000000 U
b10 T
b100 S
r2.5 $
b100000000 #
b10 "
b100 !
0%
0&
0'
b0 (
0)
b0 *
b0 +
b0 ,
b0 -
b0 .
b0 /
b0 0
b0 1
b0 2
b0 3
b0 4
15
06
b0 7
b0 8
b0 9
b0 :
b0 ;
1<
b0 =
b0 >
b0 ?
b0 @
b0 A
b0 B
b0 C
b0 D
b0 E
b0 F
b0 G
b0 H
0I
b0 J
b0 K
b0 L
b0 M
b100000000000000000000000000000000000000000001000000000000000000010000000000000001001000000000000000000100000000001001000000001010000000000001 N
b1000000000000000000000000000000000000000000001000000000000000000010000000000000001000100000000000000001000000000001001000000001010000000000010 O
b1100000000000000000000000000000000000000000001000000000000000000010000000000000001000010000000000000010000000000001001000000001010000000000011 P
b10000000000000000000000000000000000000000000001000000000000000000010000000000000001000001000000000000100000000000001001000000001010000000000100 Q
b10100000000000000000000000000000000000000000001000000000000000000010000000000000001000100000000000000010000000000001010000000001010000000000101 R
0V
0W
0X
b0 Y
0Z
b0 [
b0 \
b0 ]
b0 ^
b0 _
b0 `
b0 a
b0 b
b0 c
b0 d
b0 e
1f
0g
b0 h
b0 i
b0 j
b0 k
b0 l
1m
b0 n
b0 o
b0 p
b0 q
b0 r
b0 s
b0 t
b0 u
b0 v
b0 w
b0 x
b0 y
0z
b0 {
b0 |
b0 }
b0 ~
b0 !!
0"!
b0 #!
b0 $!
b0 %!
b0 &!
b0 '!
b0 (!
1)!
b0 *!
x+!
x,!
bx -!
bx .!
b0 /!
bx 0!
bx 1!
bx 2!
bx 3!
$end
#1250
1%
1V
#2500
0%
0V
#3750
1%
1V
#5000
0%
0V
#6250
1%
1V
#7500
0%
1&
1W
0V
#8750
1%
1V
0+!
0,!
#10000
0%
0V
#11250
1%
1V
#12500
0%
b1 L
b1 K
0V
#13750
1%
1V
#15000
0%
1)
b1 *
b10000 -
b1 .
b1 /
b100000000 0
b1 1
b1 2
b1010000000000001 4
b100000000 3
b100000000 d
b1010000000000001 e
b1 c
b1 b
b100000000 a
b1 `
b1 _
b10000 ^
b1 [
1Z
0V
b1 *!
#16250
1%
1V
b100000000 .!
b10000000000000000000000000000000000000000000000000000000000000000000000000000000000000000000000000000000000000000000000000000000000000000000000000000000000000000 !!
b11000000000000000000000000000000000000000000000000000000000000000000000000000000000000000000000000000000000000000000000000000000000000000000000000000000000000000 !!
b11001000000000000000000000000000000000000000000000000000000000000000000000000000000000000000000000000000000000000000000000000000000000000000000000000000000000000 !!
b11001000000000000000100000000000000000000000000000000000000000000000000000000000000000000000000000000000000000000000000000000000000000000000000000000000000000000 !!
b11001000000000000000100000000000000000000000000000000000000000001000000000000000000000000000000000000000000000000000000000000000000000000000000000000000000000000 !!
b11001000000000000000100000000000000000000000000000000000000000001000000000000000000010000000000000000000000000000000000000000000000000000000000000000000000000000 !!
b11001000000000000000100000000000000000000000000000000000000000001000000000000000000010000000000000001000000000000000000000000000000000000000000000000000000000000 !!
b11001000000000000000100000000000000000000000000000000000000000001000000000000000000010000000000000001001000000000000000000000000000000000000000000000000000000000 !!
b11001000000000000000100000000000000000000000000000000000000000001000000000000000000010000000000000001001000000000000000000100000000000000000000000000000000000000 !!
b11001000000000000000100000000000000000000000000000000000000000001000000000000000000010000000000000001001000000000000000000100000000001000000000000000000000000000 !!
b11001000000000000000100000000000000000000000000000000000000000001000000000000000000010000000000000001001000000000000000000100000000001001000000000000000000000000 !!
b11001000000000000000100000000000000000000000000000000000000000001000000000000000000010000000000000001001000000000000000000100000000001001000000001010000000000001 !!
0)!
b1 (!
1)!
b1 n
b1 o
b10000 r
b1 s
b1 t
b100000000 u
b1 v
b1 w
b100000000 x
b1010000000000001 y
b1 {
b1 J
b1010000000000001 H
b100000000 G
b1 F
b1 E
b100000000 D
b1 C
b1 B
b10000 A
b1 >
b1 =
#17500
0%
0)
0Z
0V
#18750
1%
1V
#20000
0%
b10 L
b10 K
b0 2!
b100000000000000000000000000000000000000000001000000000000000000010000000000000001001000000000000000000100000000001001000000001010000000000001 3!
0V
#21250
1%
1V
#22500
0%
1'
1X
0V
#23750
1%
1V
1+!
b1 -!
1"!
b1 #!
b100000000 &!
b1010000000000001 '!
b1001000000000000000100000000000000000000000000000000000000000001000000000000000000010000000000000001001000000000000000000100000000001001000000001010000000000001 !!
b1000000000000000100000000000000000000000000000000000000000001000000000000000000010000000000000001001000000000000000000100000000001001000000001010000000000001 !!
b100000000000000000000000000000000000000000001000000000000000000010000000000000001001000000000000000000100000000001001000000001010000000000001 !!
b1000000000000000000010000000000000001001000000000000000000100000000001001000000001010000000000001 !!
b10000000000000001001000000000000000000100000000001001000000001010000000000001 !!
b1001000000000000000000100000000001001000000001010000000000001 !!
b1000000000000000000100000000001001000000001010000000000001 !!
b100000000001001000000001010000000000001 !!
b1001000000001010000000000001 !!
b1000000001010000000000001 !!
b1010000000000001 !!
b0 !!
1g
b1 h
b100000000 k
b1010000000000001 l
0)!
b0 (!
1)!
b0 n
b0 o
b0 r
b0 s
b0 t
b0 u
b0 v
b0 w
b0 x
b0 y
b0 {
b0 J
b0 H
b0 G
b0 F
b0 E
b0 D
b0 C
b0 B
b0 A
b0 >
b0 =
b1010000000000001 ;
b100000000 :
b1 7
16
b11 L
b11 K
#25000
0%
0'
0X
0V
#26250
1%
1V
0+!
1,!
0"!
b0 #!
b0 &!
b0 '!
0g
b0 h
b0 k
b0 l
b0 ;
b0 :
b0 7
06
#27500
0%
1)
1Z
0V
#28750
1%
1V
0,!
b10000000000000000000000000000000000000000000000000000000000000000000000000000000000000000000000000000000000000000000000000000000000000000000000000000000000000000 !!
b11000000000000000000000000000000000000000000000000000000000000000000000000000000000000000000000000000000000000000000000000000000000000000000000000000000000000000 !!
b11001000000000000000000000000000000000000000000000000000000000000000000000000000000000000000000000000000000000000000000000000000000000000000000000000000000000000 !!
b11001000000000000000100000000000000000000000000000000000000000000000000000000000000000000000000000000000000000000000000000000000000000000000000000000000000000000 !!
b11001000000000000000100000000000000000000000000000000000000000001000000000000000000000000000000000000000000000000000000000000000000000000000000000000000000000000 !!
b11001000000000000000100000000000000000000000000000000000000000001000000000000000000010000000000000000000000000000000000000000000000000000000000000000000000000000 !!
b11001000000000000000100000000000000000000000000000000000000000001000000000000000000010000000000000001000000000000000000000000000000000000000000000000000000000000 !!
b11001000000000000000100000000000000000000000000000000000000000001000000000000000000010000000000000001001000000000000000000000000000000000000000000000000000000000 !!
b11001000000000000000100000000000000000000000000000000000000000001000000000000000000010000000000000001001000000000000000000100000000000000000000000000000000000000 !!
b11001000000000000000100000000000000000000000000000000000000000001000000000000000000010000000000000001001000000000000000000100000000001000000000000000000000000000 !!
b11001000000000000000100000000000000000000000000000000000000000001000000000000000000010000000000000001001000000000000000000100000000001001000000000000000000000000 !!
b11001000000000000000100000000000000000000000000000000000000000001000000000000000000010000000000000001001000000000000000000100000000001001000000001010000000000001 !!
0)!
b1 (!
1)!
b1 n
b1 o
b10000 r
b1 s
b1 t
b100000000 u
b1 v
b1 w
b100000000 x
b1010000000000001 y
b1 {
b1 J
b1010000000000001 H
b100000000 G
b1 F
b1 E
b100000000 D
b1 C
b1 B
b10000 A
b1 >
b1 =
#30000
0%
0)
b1 /!
0Z
0V
#31250
1%
1V
#32500
0%
1)
b10 *
b10000000 0
b10 1
b1010000000000010 4
b1010000000000010 e
b10 b
b10000000 a
b10 [
1Z
0V
#33750
1%
1V
b10000000000000000000000000000000000000000000000000000000000000000000000000000000000000000000000000000000000000000000000000000000000000000000000000000000000000000 ~
b11000000000000000000000000000000000000000000000000000000000000000000000000000000000000000000000000000000000000000000000000000000000000000000000000000000000000000 ~
b11001000000000000000000000000000000000000000000000000000000000000000000000000000000000000000000000000000000000000000000000000000000000000000000000000000000000000 ~
b11001000000000000001000000000000000000000000000000000000000000000000000000000000000000000000000000000000000000000000000000000000000000000000000000000000000000000 ~
b11001000000000000001000000000000000000000000000000000000000000001000000000000000000000000000000000000000000000000000000000000000000000000000000000000000000000000 ~
b11001000000000000001000000000000000000000000000000000000000000001000000000000000000010000000000000000000000000000000000000000000000000000000000000000000000000000 ~
b11001000000000000001000000000000000000000000000000000000000000001000000000000000000010000000000000001000000000000000000000000000000000000000000000000000000000000 ~
b11001000000000000001000000000000000000000000000000000000000000001000000000000000000010000000000000001000100000000000000000000000000000000000000000000000000000000 ~
b11001000000000000001000000000000000000000000000000000000000000001000000000000000000010000000000000001000100000000000000001000000000000000000000000000000000000000 ~
b11001000000000000001000000000000000000000000000000000000000000001000000000000000000010000000000000001000100000000000000001000000000001000000000000000000000000000 ~
b11001000000000000001000000000000000000000000000000000000000000001000000000000000000010000000000000001000100000000000000001000000000001001000000000000000000000000 ~
b11001000000000000001000000000000000000000000000000000000000000001000000000000000000010000000000000001000100000000000000001000000000001001000000001010000000000010 ~
0)!
b0 (!
b10 (!
1)!
b11 n
b100000000000000001 o
b100000000000000010000 r
b10000000000000001 s
b10000000000000001 t
b1000000000100000000 u
b1000000000001 v
b100000000001 w
b10000000000100000000 x
b10100000000000101010000000000001 y
b10 {
b10 J
b10100000000000101010000000000001 H
b10000000000100000000 G
b100000000001 F
b1000000000001 E
b1000000000100000000 D
b10000000000000001 C
b10000000000000001 B
b100000000000000010000 A
b100000000000000001 >
b11 =
#35000
0%
0)
b10 /!
0Z
0V
#36250
1%
1V
#37500
0%
1)
b11 *
b1000000 0
b100 1
b1010000000000011 4
b1010000000000011 e
b100 b
b1000000 a
b11 [
1Z
0V
#38750
1%
1V
b10000000000000000000000000000000000000000000000000000000000000000000000000000000000000000000000000000000000000000000000000000000000000000000000000000000000000000 }
b11000000000000000000000000000000000000000000000000000000000000000000000000000000000000000000000000000000000000000000000000000000000000000000000000000000000000000 }
b11001000000000000000000000000000000000000000000000000000000000000000000000000000000000000000000000000000000000000000000000000000000000000000000000000000000000000 }
b11001000000000000001100000000000000000000000000000000000000000000000000000000000000000000000000000000000000000000000000000000000000000000000000000000000000000000 }
b11001000000000000001100000000000000000000000000000000000000000001000000000000000000000000000000000000000000000000000000000000000000000000000000000000000000000000 }
b11001000000000000001100000000000000000000000000000000000000000001000000000000000000010000000000000000000000000000000000000000000000000000000000000000000000000000 }
b11001000000000000001100000000000000000000000000000000000000000001000000000000000000010000000000000001000000000000000000000000000000000000000000000000000000000000 }
b11001000000000000001100000000000000000000000000000000000000000001000000000000000000010000000000000001000010000000000000000000000000000000000000000000000000000000 }
b11001000000000000001100000000000000000000000000000000000000000001000000000000000000010000000000000001000010000000000000010000000000000000000000000000000000000000 }
b11001000000000000001100000000000000000000000000000000000000000001000000000000000000010000000000000001000010000000000000010000000000001000000000000000000000000000 }
b11001000000000000001100000000000000000000000000000000000000000001000000000000000000010000000000000001000010000000000000010000000000001001000000000000000000000000 }
b11001000000000000001100000000000000000000000000000000000000000001000000000000000000010000000000000001000010000000000000010000000000001001000000001010000000000011 }
0)!
b0 (!
b11 (!
1)!
b111 n
b1100000000000000100000000000000001 o
b1000000000000000100000000000000010000 r
b100000000000000010000000000000001 s
b100000000000000010000000000000001 t
b10000000001000000000100000000 u
b1000000000001000000000001 v
b10000000000100000000001 w
b1000000000010000000000100000000 x
b101000000000001110100000000000101010000000000001 y
b11 {
b11 J
b101000000000001110100000000000101010000000000001 H
b1000000000010000000000100000000 G
b10000000000100000000001 F
b1000000000001000000000001 E
b10000000001000000000100000000 D
b100000000000000010000000000000001 C
b100000000000000010000000000000001 B
b1000000000000000100000000000000010000 A
b1100000000000000100000000000000001 >
b111 =
#40000
0%
0)
b11 /!
0Z
0V
#41250
1%
1V
#42500
0%
1)
b100 *
b100000 0
b1000 1
b1010000000000100 4
b1010000000000100 e
b1000 b
b100000 a
b100 [
1Z
0V
#43750
1%
1V
b10000000000000000000000000000000000000000000000000000000000000000000000000000000000000000000000000000000000000000000000000000000000000000000000000000000000000000 |
b11000000000000000000000000000000000000000000000000000000000000000000000000000000000000000000000000000000000000000000000000000000000000000000000000000000000000000 |
b11001000000000000000000000000000000000000000000000000000000000000000000000000000000000000000000000000000000000000000000000000000000000000000000000000000000000000 |
b11001000000000000010000000000000000000000000000000000000000000000000000000000000000000000000000000000000000000000000000000000000000000000000000000000000000000000 |
b11001000000000000010000000000000000000000000000000000000000000001000000000000000000000000000000000000000000000000000000000000000000000000000000000000000000000000 |
b11001000000000000010000000000000000000000000000000000000000000001000000000000000000010000000000000000000000000000000000000000000000000000000000000000000000000000 |
b11001000000000000010000000000000000000000000000000000000000000001000000000000000000010000000000000001000000000000000000000000000000000000000000000000000000000000 |
b11001000000000000010000000000000000000000000000000000000000000001000000000000000000010000000000000001000001000000000000000000000000000000000000000000000000000000 |
b11001000000000000010000000000000000000000000000000000000000000001000000000000000000010000000000000001000001000000000000100000000000000000000000000000000000000000 |
b11001000000000000010000000000000000000000000000000000000000000001000000000000000000010000000000000001000001000000000000100000000000001000000000000000000000000000 |
b11001000000000000010000000000000000000000000000000000000000000001000000000000000000010000000000000001000001000000000000100000000000001001000000000000000000000000 |
b11001000000000000010000000000000000000000000000000000000000000001000000000000000000010000000000000001000001000000000000100000000000001001000000001010000000000100 |
0)!
b0 (!
b1111 n
b100000000000000001100000000000000100000000000000001 o
b10000000000000001000000000000000100000000000000010000 r
b1000000000000000100000000000000010000000000000001 s
b1000000000000000100000000000000010000000000000001 t
b100000000010000000001000000000100000000 u
b1000000000001000000000001000000000001 v
b1000000000010000000000100000000001 w
b100000000001000000000010000000000100000000 x
b1010000000000100101000000000001110100000000000101010000000000001 y
1z
0f
b0 {
b0 J
05
1I
b1010000000000100101000000000001110100000000000101010000000000001 H
b100000000001000000000010000000000100000000 G
b1000000000010000000000100000000001 F
b1000000000001000000000001000000000001 E
b100000000010000000001000000000100000000 D
b1000000000000000100000000000000010000000000000001 C
b1000000000000000100000000000000010000000000000001 B
b10000000000000001000000000000000100000000000000010000 A
b100000000000000001100000000000000100000000000000001 >
b1111 =
#45000
0%
0)
0Z
0V
#46250
1%
1V
#47500
0%
b100 L
b100 K
0V
#48750
1%
1V
#50000
0%
1)
1Z
0V
#51250
1%
1V
#52500
0%
b101 L
0)
b101 K
0Z
0V
#53750
1%
1V
#55000
0%
1'
1X
0V
#56250
1%
1V
1+!
1"!
b1 #!
b100000000 &!
b1010000000000001 '!
b1001000000000000000100000000000000000000000000000000000000000001000000000000000000010000000000000001001000000000000000000100000000001001000000001010000000000001 !!
b1000000000000000100000000000000000000000000000000000000000001000000000000000000010000000000000001001000000000000000000100000000001001000000001010000000000001 !!
b100000000000000000000000000000000000000000001000000000000000000010000000000000001001000000000000000000100000000001001000000001010000000000001 !!
b1000000000000000000010000000000000001001000000000000000000100000000001001000000001010000000000001 !!
b10000000000000001001000000000000000000100000000001001000000001010000000000001 !!
b1001000000000000000000100000000001001000000001010000000000001 !!
b1000000000000000000100000000001001000000001010000000000001 !!
b100000000001001000000001010000000000001 !!
b1001000000001010000000000001 !!
b1000000001010000000000001 !!
b1010000000000001 !!
b0 !!
1g
b1 h
b100000000 k
b1010000000000001 l
1)!
b1110 n
b100000000000000001100000000000000100000000000000000 o
b10000000000000001000000000000000100000000000000000000 r
b1000000000000000100000000000000010000000000000000 s
b1000000000000000100000000000000010000000000000000 t
b100000000010000000001000000000000000000 u
b1000000000001000000000001000000000000 v
b1000000000010000000000100000000000 w
b100000000001000000000010000000000000000000 x
b1010000000000100101000000000001110100000000000100000000000000000 y
0z
1f
15
0I
b1010000000000100101000000000001110100000000000100000000000000000 H
b100000000001000000000010000000000000000000 G
b1000000000010000000000100000000000 F
b1000000000001000000000001000000000000 E
b100000000010000000001000000000000000000 D
b1000000000000000100000000000000010000000000000000 C
b1000000000000000100000000000000010000000000000000 B
b10000000000000001000000000000000100000000000000000000 A
b100000000000000001100000000000000100000000000000000 >
b1110 =
b1010000000000001 ;
b100000000 :
b1 7
16
b110 L
b110 K
#57500
0%
0'
b1 2!
b1000000000000000000000000000000000000000000001000000000000000000010000000000000001000100000000000000001000000000001001000000001010000000000010 3!
0X
0V
#58750
1%
1V
0+!
1,!
0"!
b0 #!
b0 &!
b0 '!
0g
b0 h
b0 k
b0 l
b0 ;
b0 :
b0 7
06
#60000
0%
1'
b1 (
b1 Y
1X
0V
#61250
1%
1V
1+!
0,!
1"!
b10 #!
b100000000 &!
b1010000000000010 '!
b1001000000000000001000000000000000000000000000000000000000000001000000000000000000010000000000000001000100000000000000001000000000001001000000001010000000000010 ~
b1000000000000001000000000000000000000000000000000000000000001000000000000000000010000000000000001000100000000000000001000000000001001000000001010000000000010 ~
b1000000000000000000000000000000000000000000001000000000000000000010000000000000001000100000000000000001000000000001001000000001010000000000010 ~
b1000000000000000000010000000000000001000100000000000000001000000000001001000000001010000000000010 ~
b10000000000000001000100000000000000001000000000001001000000001010000000000010 ~
b1000100000000000000001000000000001001000000001010000000000010 ~
b100000000000000001000000000001001000000001010000000000010 ~
b1000000000001001000000001010000000000010 ~
b1001000000001010000000000010 ~
b1000000001010000000000010 ~
b1010000000000010 ~
b0 ~
1g
b10 h
b100000000 k
b1010000000000010 l
0)!
1)!
b1100 n
b100000000000000001100000000000000000000000000000000 o
b10000000000000001000000000000000000000000000000000000 r
b1000000000000000100000000000000000000000000000000 s
b1000000000000000100000000000000000000000000000000 t
b100000000010000000000000000000000000000 u
b1000000000001000000000000000000000000 v
b1000000000010000000000000000000000 w
b100000000001000000000000000000000000000000 x
b1010000000000100101000000000001100000000000000000000000000000000 y
b1010000000000100101000000000001100000000000000000000000000000000 H
b100000000001000000000000000000000000000000 G
b1000000000010000000000000000000000 F
b1000000000001000000000000000000000000 E
b100000000010000000000000000000000000000 D
b1000000000000000100000000000000000000000000000000 C
b1000000000000000100000000000000000000000000000000 B
b10000000000000001000000000000000000000000000000000000 A
b100000000000000001100000000000000000000000000000000 >
b1100 =
b1010000000000010 ;
b100000000 :
b10 7
16
b111 L
b111 K
#62500
0%
0'
b10 2!
b1100000000000000000000000000000000000000000001000000000000000000010000000000000001000010000000000000010000000000001001000000001010000000000011 3!
0X
0V
#63750
1%
1V
0+!
1,!
0"!
b0 #!
b0 &!
b0 '!
0g
b0 h
b0 k
b0 l
b0 ;
b0 :
b0 7
06
#65000
0%
1'
b10 (
b10 Y
1X
0V
#66250
1%
1V
1+!
0,!
1"!
b11 #!
b100000000 &!
b1010000000000011 '!
b1001000000000000001100000000000000000000000000000000000000000001000000000000000000010000000000000001000010000000000000010000000000001001000000001010000000000011 }
b1000000000000001100000000000000000000000000000000000000000001000000000000000000010000000000000001000010000000000000010000000000001001000000001010000000000011 }
b1100000000000000000000000000000000000000000001000000000000000000010000000000000001000010000000000000010000000000001001000000001010000000000011 }
b1000000000000000000010000000000000001000010000000000000010000000000001001000000001010000000000011 }
b10000000000000001000010000000000000010000000000001001000000001010000000000011 }
b1000010000000000000010000000000001001000000001010000000000011 }
b10000000000000010000000000001001000000001010000000000011 }
b10000000000001001000000001010000000000011 }
b1001000000001010000000000011 }
b1000000001010000000000011 }
b1010000000000011 }
b0 }
1g
b11 h
b100000000 k
b1010000000000011 l
0)!
1)!
b1000 n
b100000000000000000000000000000000000000000000000000 o
b10000000000000000000000000000000000000000000000000000 r
b1000000000000000000000000000000000000000000000000 s
b1000000000000000000000000000000000000000000000000 t
b100000000000000000000000000000000000000 u
b1000000000000000000000000000000000000 v
b1000000000000000000000000000000000 w
b100000000000000000000000000000000000000000 x
b1010000000000100000000000000000000000000000000000000000000000000 y
b1010000000000100000000000000000000000000000000000000000000000000 H
b100000000000000000000000000000000000000000 G
b1000000000000000000000000000000000 F
b1000000000000000000000000000000000000 E
b100000000000000000000000000000000000000 D
b1000000000000000000000000000000000000000000000000 C
b1000000000000000000000000000000000000000000000000 B
b10000000000000000000000000000000000000000000000000000 A
b100000000000000000000000000000000000000000000000000 >
b1000 =
b1010000000000011 ;
b100000000 :
b11 7
16
b1000 L
b1000 K
#67500
0%
0'
b11 2!
b10000000000000000000000000000000000000000000001000000000000000000010000000000000001000001000000000000100000000000001001000000001010000000000100 3!
0X
0V
#68750
1%
1V
0+!
1,!
0"!
b0 #!
b0 &!
b0 '!
0g
b0 h
b0 k
b0 l
b0 ;
b0 :
b0 7
06
#70000
0%
1'
b11 (
b11 Y
1X
0V
#71250
1%
1V
1+!
0,!
1"!
b100 #!
b100000000 &!
b1010000000000100 '!
b1001000000000000010000000000000000000000000000000000000000000001000000000000000000010000000000000001000001000000000000100000000000001001000000001010000000000100 |
b1000000000000010000000000000000000000000000000000000000000001000000000000000000010000000000000001000001000000000000100000000000001001000000001010000000000100 |
b10000000000000000000000000000000000000000000001000000000000000000010000000000000001000001000000000000100000000000001001000000001010000000000100 |
b1000000000000000000010000000000000001000001000000000000100000000000001001000000001010000000000100 |
b10000000000000001000001000000000000100000000000001001000000001010000000000100 |
b1000001000000000000100000000000001001000000001010000000000100 |
b1000000000000100000000000001001000000001010000000000100 |
b100000000000001001000000001010000000000100 |
b1001000000001010000000000100 |
b1000000001010000000000100 |
b1010000000000100 |
b0 |
1g
b100 h
b100000000 k
b1010000000000100 l
0)!
1)!
b0 n
b0 o
b0 r
b0 s
b0 t
b0 u
b0 v
b0 w
b0 x
b0 y
b0 H
b0 G
b0 F
b0 E
b0 D
b0 C
b0 B
b0 A
b0 >
b0 =
b1010000000000100 ;
b100000000 :
b100 7
16
b1001 L
b1001 K
#72500
0%
0'
0X
0V
#73750
1%
1V
0+!
1,!
0"!
b0 #!
b0 &!
b0 '!
0g
b0 h
b0 k
b0 l
b0 ;
b0 :
b0 7
06
#75000
0%
b1010 L
b1010 K
b100 /!
0V
#76250
1%
1V
0,!
#77500
0%
1)
b101 *
b10000000 0
b100 1
b1010000000000101 4
b1000000000 3
b1000000000 d
b1010000000000101 e
b100 b
b10000000 a
b101 [
1Z
0V
b10 *!
#78750
1%
1V
b1000000000 .!
b10000000000000000000000000000000000000000000000000000000000000000000000000000000000000000000000000000000000000000000000000000000000000000000000000000000000000000 !!
b11000000000000000000000000000000000000000000000000000000000000000000000000000000000000000000000000000000000000000000000000000000000000000000000000000000000000000 !!
b11010000000000000000000000000000000000000000000000000000000000000000000000000000000000000000000000000000000000000000000000000000000000000000000000000000000000000 !!
b11010000000000000010100000000000000000000000000000000000000000000000000000000000000000000000000000000000000000000000000000000000000000000000000000000000000000000 !!
b11010000000000000010100000000000000000000000000000000000000000001000000000000000000000000000000000000000000000000000000000000000000000000000000000000000000000000 !!
b11010000000000000010100000000000000000000000000000000000000000001000000000000000000010000000000000000000000000000000000000000000000000000000000000000000000000000 !!
b11010000000000000010100000000000000000000000000000000000000000001000000000000000000010000000000000001000000000000000000000000000000000000000000000000000000000000 !!
b11010000000000000010100000000000000000000000000000000000000000001000000000000000000010000000000000001000100000000000000000000000000000000000000000000000000000000 !!
b11010000000000000010100000000000000000000000000000000000000000001000000000000000000010000000000000001000100000000000000010000000000000000000000000000000000000000 !!
b11010000000000000010100000000000000000000000000000000000000000001000000000000000000010000000000000001000100000000000000010000000000001000000000000000000000000000 !!
b11010000000000000010100000000000000000000000000000000000000000001000000000000000000010000000000000001000100000000000000010000000000001010000000000000000000000000 !!
b11010000000000000010100000000000000000000000000000000000000000001000000000000000000010000000000000001000100000000000000010000000000001010000000001010000000000101 !!
b10000000000000000000000000000000000000000000000000000000000000000000000000000000000000000000000000000000000000000000000000000000000000000000000000000000000000000 ~
b10010000000000000000000000000000000000000000000000000000000000000000000000000000000000000000000000000000000000000000000000000000000000000000000000000000000000000 ~
0)!
b10 (!
1)!
b1 n
b101 o
b10000 r
b1 s
b1 t
b10000000 u
b100 v
b1 w
b1000000000 x
b1010000000000101 y
b10 {
b10 J
b1010000000000101 H
b1000000000 G
b1 F
b100 E
b10000000 D
b1 C
b1 B
b10000 A
b101 >
b1 =
#80000
0%
0)
0Z
0V
#81250
1%
1V
#82500
0%
b1011 L
b1011 K
b0 /!
0V
#83750
1%
1V
#85000
0%
1)
b1 *
b100000000 0
b1 1
b1010000000000001 4
b100000000 3
b100000000 d
b1010000000000001 e
b1 b
b100000000 a
b1 [
1Z
0V
b1 *!
