dice_new/tb/cgra_core/CT_stage/block_commit_table.vcd
$date
    Jul 17, 2025  00:43:40
$end
$version
    TOOL:	xmsim(64)	22.09-s001
$end
$timescale
    1 ps
$end

$scope module tb_block_commit_table $end
$var parameter 32 !    MAX_NUM_CTA $end
$var parameter 32 "    MAX_EBLOCK $end
$var real     64 #    CLK_PERIOD $end
$var reg       1 $    clk $end
$var reg       1 %    rst_n $end
$var reg       1 &    insert_valid $end
$var reg       2 '    insert_hw_cta_id [1:0] $end
$var reg       3 (    insert_e_block_id [2:0] $end
$var reg      14 )    insert_pending_reads [13:0] $end
$var reg      14 *    insert_pending_writes [13:0] $end
$var reg       1 +    update_valid $end
$var reg       3 ,    update_e_block_id [2:0] $end
$var reg       1 -    update_is_write $end
$var reg       4 .    update_reduce_count [3:0] $end
$var reg       1 /    pop_valid $end
$var reg       3 0    pop_e_block_id [2:0] $end
$var reg       1 1    pop_ready $end
$var integer  32 2    test_passed $end
$var integer  32 3    test_failed $end
$var reg       4 4    hw_cta_pending [3:0] $end

$scope module dut $end
$var parameter 32 5    MAX_EBLOCK $end
$var parameter 32 6    MAX_NUM_CTA $end
$var wire      1 7    clk  $end
$var wire      1 8    rst_n  $end
$var wire      1 9    insert_valid  $end
$var wire      2 :    insert_hw_cta_id [1:0] $end
$var wire      3 ;    insert_e_block_id [2:0] $end
$var wire     14 <    insert_pending_reads [13:0] $end
$var wire     14 =    insert_pending_writes [13:0] $end
$var wire      1 >    update_valid  $end
$var wire      3 ?    update_e_block_id [2:0] $end
$var wire      1 @    update_is_write  $end
$var wire      4 A    update_reduce_count [3:0] $end
$var reg       1 B    pop_valid $end
$var reg       3 C    pop_e_block_id [2:0] $end
$var wire      1 D    pop_ready  $end
$var reg       4 E    hw_cta_pending [3:0] $end
$var reg      34 F    commit_table[0] [33:0] $end
$var reg      34 G    commit_table[1] [33:0] $end
$var reg      34 H    commit_table[2] [33:0] $end
$var reg      34 I    commit_table[3] [33:0] $end
$var reg      34 J    commit_table[4] [33:0] $end
$var reg      34 K    commit_table[5] [33:0] $end
$var reg      34 L    commit_table[6] [33:0] $end
$var reg      34 M    commit_table[7] [33:0] $end
$var reg       3 N    rr_ptr [2:0] $end
$var reg       8 O    ready_to_commit [7:0] $end
$var reg       3 P    commit_idx [2:0] $end
$var reg       1 Q    commit_found $end

$scope begin unmblk3 $end

$scope begin unmblk1 $end
$var reg       3 R    idx [2:0] $end
$upscope $end

$upscope $end

$upscope $end


$scope task test_round_robin_priority $end
$var reg       3 S    commit_order [2:0] $end
$upscope $end

$upscope $end

$enddefinitions $end
$dumpvars
b100 6
b1000 5
r2.5 #
b1000 "
b100 !
0$
0%
0&
b0 '
b0 (
b0 )
b0 *
0+
b0 ,
0-
b0 .
0/
b0 0
11
b0 2
b0 3
b0 4
07
08
09
b0 :
b0 ;
b0 <
b0 =
0>
b0 ?
0@
b0 A
0B
b0 C
1D
b0 E
b0 F
b0 G
b0 H
b0 I
b0 J
b0 K
b0 L
b0 M
b0 N
b0 O
b0 P
0Q
b111 R
bx S
$end
#1250
1$
17
#2500
0$
07
#3750
1$
17
#5000
0$
07
#6250
1$
17
#7500
0$
07
#8750
1$
17
#10000
0$
07
#11250
1$
1%
18
17
#12500
0$
07
#13750
1$
17
#15000
0$
07
#16250
1$
17
#17500
0$
1&
b11 (
b10 '
b10 :
b11 ;
19
07
#18750
1$
17
b1000000000000000000000000000000000 I
b1100000000000000000000000000000000 I
b1100110000000000000000000000000000 I
b0 O
b0 O
b0 O
b1000 O
b1000 O
b1000 O
b1000 O
b1000 O
b100 E
b0 R
b1 R
b10 R
b11 R
1Q
b11 P
b100 R
b101 R
b110 R
b111 R
1B
b11 C
b11 0
1/
b100 4
#20000
0$
b1 2
0&
09
07
#21250
1$
17
b1 N
b100110000000000000000000000000000 I
0Q
b0 P
b1 R
b10 R
b11 R
1Q
b11 P
b100 R
b101 R
b110 R
b111 R
b0 R
b1000 O
b1000 O
b1000 O
b0 O
b0 O
b0 O
b0 O
b0 O
b0 E
0Q
b0 P
b1 R
b10 R
b11 R
b100 R
b101 R
b110 R
b111 R
b0 R
0B
b0 C
b0 0
0/
b0 4
#22500
0$
07
#23750
1$
17
#25000
0$
1&
b0 (
b0 '
b1010 )
b101 *
b101 =
b1010 <
b0 :
b0 ;
19
07
#26250
1$
17
b1000000000000000000000000000000000 F
b1000000000000000101000000000000000 F
b1000000000000000101000000000000101 F
b0 O
b0 O
b0 O
b0 O
b0 O
b0 O
b0 O
b0 O
b1 E
b1 4
#27500
0$
0&
b10 2
09
07
#28750
1$
17
#30000
0$
1&
b1 (
b1 '
b1011 )
b110 *
b110 =
b1011 <
b1 :
b1 ;
19
07
#31250
1$
17
b1000000000000000000000000000000000 G
b1010000000000000000000000000000000 G
b1010010000000000000000000000000000 G
b1010010000000000101100000000000000 G
b1010010000000000101100000000000110 G
b0 O
b0 O
b0 O
b0 O
b0 O
b0 O
b0 O
b0 O
b0 E
b1 E
b11 E
b11 4
#32500
0$
0&
b11 2
09
07
#33750
1$
17
#35000
0$
1&
b10 (
b10 '
b1100 )
b111 *
b111 =
b1100 <
b10 :
b10 ;
19
07
#36250
1$
17
b1000000000000000000000000000000000 H
b1100000000000000000000000000000000 H
b1100100000000000000000000000000000 H
b1100100000000000110000000000000000 H
b1100100000000000110000000000000111 H
b0 O
b0 O
b0 O
b0 O
b0 O
b0 O
b0 O
b0 O
b0 E
b1 E
b11 E
b111 E
b111 4
#37500
0$
0&
b100 2
09
07
#38750
1$
17
#40000
0$
1&
b11 (
b11 '
b1101 )
b1000 *
b1000 =
b1101 <
b11 :
b11 ;
19
07
#41250
1$
17
b1100110000000000000000000000000000 I
b1110110000000000000000000000000000 I
b1110110000000000110100000000000000 I
b1110110000000000110100000000001000 I
b0 O
b0 O
b0 O
b0 O
b0 O
b0 O
b0 O
b0 O
b0 E
b1 E
b11 E
b111 E
b1111 E
b1111 4
#42500
0$
0&
b101 2
09
07
#43750
1$
17
#45000
0$
1+
b1000 .
b1000 A
1>
07
#46250
1$
17
b1000000000000000001000000000000101 F
b0 O
b0 O
b0 O
b0 O
b0 O
b0 O
b0 O
b0 O
b0 E
b1 E
b11 E
b111 E
b1111 E
#47500
0$
b10 .
b10 A
07
#48750
1$
17
b1000000000000000000000000000000101 F
b0 O
b0 O
b0 O
b0 O
b0 O
b0 O
b0 O
b0 O
b0 E
b1 E
b11 E
b111 E
b1111 E
#50000
0$
0+
0>
07
#51250
1$
17
#52500
0$
1+
1-
b101 .
b101 A
1@
1>
07
#53750
1$
17
b1000000000000000000000000000000000 F
b1 O
b1 O
b1 O
b1 O
b1 O
b1 O
b1 O
b1 O
b0 E
b1 E
b11 E
b111 E
b1111 E
b1 R
b10 R
b11 R
b100 R
b101 R
b110 R
b111 R
b0 R
1Q
1B
1/
#55000
0$
0+
0>
07
#56250
1$
17
b10 N
b0 F
0Q
b10 R
b11 R
b100 R
b101 R
b110 R
b111 R
b0 R
1Q
b1 R
b0 O
b0 O
b0 O
b0 O
b0 O
b0 O
b0 O
b0 O
b0 E
b10 E
b110 E
b1110 E
0Q
b10 R
b11 R
b100 R
b101 R
b110 R
b111 R
b0 R
b1 R
0B
0/
b1110 4
#57500
0$
b110 2
07
#58750
1$
17
#60000
0$
1+
b1 ,
0-
b1000 .
b1000 A
0@
b1 ?
1>
07
#61250
1$
17
b1010010000000000001100000000000110 G
b0 O
b0 O
b0 O
b0 O
b0 O
b0 O
b0 O
b0 O
b0 E
b10 E
b110 E
b1110 E
#62500
0$
b11 .
b11 A
07
#63750
1$
17
b1010010000000000000000000000000110 G
b0 O
b0 O
b0 O
b0 O
b0 O
b0 O
b0 O
b0 O
b0 E
b10 E
b110 E
b1110 E
#65000
0$
0+
0>
07
#66250
1$
17
#67500
0$
1+
1-
b110 .
b110 A
1@
1>
07
#68750
1$
17
b1010010000000000000000000000000000 G
b0 O
b10 O
b10 O
b10 O
b10 O
b10 O
b10 O
b10 O
b0 E
b10 E
b110 E
b1110 E
b10 R
b11 R
b100 R
b101 R
b110 R
b111 R
b0 R
b1 R
1Q
b1 P
1B
b1 C
b1 0
1/
#70000
0$
0+
0>
07
#71250
1$
17
b11 N
b10010000000000000000000000000000 G
0Q
b0 P
b11 R
b100 R
b101 R
b110 R
b111 R
b0 R
b1 R
1Q
b1 P
b10 R
b10 O
b0 O
b0 O
b0 O
b0 O
b0 O
b0 O
b0 O
b0 E
b100 E
b1100 E
0Q
b0 P
b11 R
b100 R
b101 R
b110 R
b111 R
b0 R
b1 R
b10 R
0B
b0 C
b0 0
0/
b1100 4
#72500
0$
b111 2
07
#73750
1$
17
#75000
0$
1+
b10 ,
0-
b1000 .
b1000 A
0@
b10 ?
1>
07
#76250
1$
17
b1100100000000000010000000000000111 H
b0 O
b0 O
b0 O
b0 O
b0 O
b0 O
b0 O
b0 O
b0 E
b100 E
b1100 E
#77500
0$
b100 .
b100 A
07
#78750
1$
17
b1100100000000000000000000000000111 H
b0 O
b0 O
b0 O
b0 O
b0 O
b0 O
b0 O
b0 O
b0 E
b100 E
b1100 E
#80000
0$
0+
0>
07
#81250
1$
17
#82500
0$
1+
1-
b111 .
b111 A
1@
1>
07
#83750
1$
17
b1100100000000000000000000000000000 H
b0 O
b0 O
b100 O
b100 O
b100 O
b100 O
b100 O
b100 O
b0 E
b100 E
b1100 E
b11 R
b100 R
b101 R
b110 R
b111 R
b0 R
b1 R
b10 R
1Q
b10 P
1B
b10 C
b10 0
1/
#85000
0$
0+
0>
07
#86250
1$
17
b100 N
b100100000000000000000000000000000 H
0Q
b0 P
b100 R
b101 R
b110 R
b111 R
b0 R
b1 R
b10 R
1Q
b10 P
b11 R
b100 O
b100 O
b0 O
b0 O
b0 O
b0 O
b0 O
b0 O
b0 E
b1000 E
0Q
b0 P
b100 R
b101 R
b110 R
b111 R
b0 R
b1 R
b10 R
b11 R
0B
b0 C
b0 0
0/
b1000 4
#87500
0$
b1000 2
07
#88750
1$
17
#90000
0$
1+
b11 ,
0-
b1000 .
b1000 A
0@
b11 ?
1>
07
#91250
1$
17
b1110110000000000010100000000001000 I
b0 O
b0 O
b0 O
b0 O
b0 O
b0 O
b0 O
b0 O
b0 E
b1000 E
#92500
0$
b101 .
b101 A
07
#93750
1$
17
b1110110000000000000000000000001000 I
b0 O
b0 O
b0 O
b0 O
b0 O
b0 O
b0 O
b0 O
b0 E
b1000 E
#95000
0$
0+
0>
07
#96250
1$
17
#97500
0$
1+
1-
b1000 .
b1000 A
1@
1>
07
#98750
1$
17
b1110110000000000000000000000000000 I
b0 O
b0 O
b0 O
b1000 O
b1000 O
b1000 O
b1000 O
b1000 O
b0 E
b1000 E
b100 R
b101 R
b110 R
b111 R
b0 R
b1 R
b10 R
b11 R
1Q
b11 P
1B
b11 C
b11 0
1/
#100000
0$
0+
0>
07
#101250
1$
17
b101 N
b110110000000000000000000000000000 I
0Q
b0 P
b101 R
b110 R
b111 R
b0 R
b1 R
b10 R
b11 R
1Q
b11 P
b100 R
b1000 O
b1000 O
b1000 O
b0 O
b0 O
b0 O
b0 O
b0 O
b0 E
0Q
b0 P
b101 R
b110 R
b111 R
b0 R
b1 R
b10 R
b11 R
b100 R
0B
b0 C
b0 0
0/
b0 4
#102500
0$
b1001 2
07
#103750
1$
17
#105000
0$
07
#106250
1$
17
#107500
0$
07
#108750
1$
17
#110000
0$
07
#111250
1$
17
#112500
0$
07
#113750
1$
17
#115000
0$
b0 S
07
#116250
1$
17
#117500
0$
1&
b0 (
b0 '
b1000 )
b1000 <
b0 :
b0 ;
19
07
#118750
1$
17
b1000000000000000000000000000000000 F
b1000000000000000100000000000000000 F
b1000000000000000100000000000001000 F
b0 O
b0 O
b0 O
b0 O
b0 O
b0 O
b0 O
b0 O
b1 E
b1 4
#120000
0$
0&
09
07
#121250
1$
17
#122500
0$
1&
b1 (
b1 '
b1 :
b1 ;
19
07
#123750
1$
17
b1010010000000000000000000000000000 G
b1010010000000000100000000000000000 G
b1010010000000000100000000000001000 G
b0 O
b0 O
b0 O
b0 O
b0 O
b0 O
b0 O
b0 O
b0 E
b1 E
b11 E
b11 4
#125000
0$
0&
09
07
#126250
1$
17
#127500
0$
1&
b10 (
b10 '
b10 :
b10 ;
19
07
#128750
1$
17
b1100100000000000000000000000000000 H
b1100100000000000100000000000000000 H
b1100100000000000100000000000001000 H
b0 O
b0 O
b0 O
b0 O
b0 O
b0 O
b0 O
b0 O
b0 E
b1 E
b11 E
b111 E
b111 4
#130000
0$
0&
09
07
#131250
1$
17
#132500
0$
1&
b11 (
b11 '
b11 :
b11 ;
19
07
#133750
1$
17
b1110110000000000000000000000000000 I
b1110110000000000100000000000000000 I
b1110110000000000100000000000001000 I
b0 O
b0 O
b0 O
b0 O
b0 O
b0 O
b0 O
b0 O
b0 E
b1 E
b11 E
b111 E
b1111 E
b1111 4
#135000
0$
0&
b1010 2
b1011 2
b1100 2
b1101 2
09
07
#136250
1$
17
#137500
0$
01
0D
07
#138750
1$
17
#140000
0$
1+
b0 ,
0-
0@
b0 ?
1>
07
#141250
1$
17
b1000000000000000000000000000001000 F
b0 O
b0 O
b0 O
b0 O
b0 O
b0 O
b0 O
b0 O
b0 E
b1 E
b11 E
b111 E
b1111 E
#142500
0$
0+
0>
07
#143750
1$
17
#145000
0$
1+
1-
1@
1>
07
#146250
1$
17
b1000000000000000000000000000000000 F
b1 O
b1 O
b1 O
b1 O
b1 O
b1 O
b1 O
b1 O
b0 E
b1 E
b11 E
b111 E
b1111 E
b101 R
b110 R
b111 R
b0 R
1Q
b1 R
b10 R
b11 R
b100 R
1B
1/
#147500
0$
0+
0>
07
#148750
1$
17
#150000
0$
1+
b1 ,
0-
0@
b1 ?
1>
07
#151250
1$
17
b1010010000000000000000000000001000 G
b1 O
b1 O
b1 O
b1 O
b1 O
b1 O
b1 O
b1 O
b0 E
b1 E
b11 E
b111 E
b1111 E
#152500
0$
0+
0>
07
#153750
1$
17
#155000
0$
1+
1-
1@
1>
07
#156250
1$
17
b1010010000000000000000000000000000 G
b1 O
b11 O
b11 O
b11 O
b11 O
b11 O
b11 O
b11 O
b0 E
b1 E
b11 E
b111 E
b1111 E
0Q
b101 R
b110 R
b111 R
b0 R
1Q
b1 R
b10 R
b11 R
b100 R
#157500
0$
0+
0>
07
#158750
1$
17
#160000
0$
1+
b10 ,
0-
0@
b10 ?
1>
07
#161250
1$
17
b1100100000000000000000000000001000 H
b11 O
b11 O
b11 O
b11 O
b11 O
b11 O
b11 O
b11 O
b0 E
b1 E
b11 E
b111 E
b1111 E
#162500
0$
0+
0>
07
#163750
1$
17
#165000
0$
1+
1-
1@
1>
07
#166250
1$
17
b1100100000000000000000000000000000 H
b11 O
b11 O
b111 O
b111 O
b111 O
b111 O
b111 O
b111 O
b0 E
b1 E
b11 E
b111 E
b1111 E
0Q
b101 R
b110 R
b111 R
b0 R
1Q
b1 R
b10 R
b11 R
b100 R
#167500
0$
0+
0>
07
#168750
1$
17
#170000
0$
1+
b11 ,
0-
0@
b11 ?
1>
07
#171250
1$
17
b1110110000000000000000000000001000 I
b111 O
b111 O
b111 O
b111 O
b111 O
b111 O
b111 O
b111 O
b0 E
b1 E
b11 E
b111 E
b1111 E
#172500
0$
0+
0>
07
#173750
1$
17
#175000
0$
1+
1-
1@
1>
07
#176250
1$
17
b1110110000000000000000000000000000 I
b111 O
b111 O
b111 O
b1111 O
b1111 O
b1111 O
b1111 O
b1111 O
b0 E
b1 E
b11 E
b111 E
b1111 E
0Q
b101 R
b110 R
b111 R
b0 R
1Q
b1 R
b10 R
b11 R
b100 R
#177500
0$
0+
0>
07
#178750
1$
17
#180000
0$
11
1D
07
#181250
1$
17
b110 N
b0 F
0Q
b110 R
b111 R
b0 R
1Q
b1 R
b10 R
b11 R
b100 R
b101 R
b1110 O
b1110 O
b1110 O
b1110 O
b1110 O
b1110 O
b1110 O
b1110 O
b0 E
b10 E
b110 E
b1110 E
0Q
b110 R
b111 R
b0 R
b1 R
1Q
b1 P
b10 R
b11 R
b100 R
b101 R
b1 C
b1 0
b1110 4
#182500
0$
b1110 2
07
#183750
1$
17
b111 N
b10010000000000000000000000000000 G
0Q
b0 P
b111 R
b0 R
b1 R
1Q
b1 P
b10 R
b11 R
b100 R
b101 R
b110 R
b1110 O
b1100 O
b1100 O
b1100 O
b1100 O
b1100 O
b1100 O
b1100 O
b0 E
b100 E
b1100 E
0Q
b0 P
b111 R
b0 R
b1 R
b10 R
1Q
b10 P
b11 R
b100 R
b101 R
b110 R
b10 C
b10 0
b1100 4
#185000
0$
b1111 2
07
#186250
1$
17
b0 N
b100100000000000000000000000000000 H
0Q
b0 P
b0 R
b1 R
b10 R
1Q
b10 P
b11 R
b100 R
b101 R
b110 R
b111 R
b1100 O
b1100 O
b1000 O
b1000 O
b1000 O
b1000 O
b1000 O
b1000 O
b0 E
b1000 E
0Q
b0 P
b0 R
b1 R
b10 R
b11 R
1Q
b11 P
b100 R
b101 R
b110 R
b111 R
b11 C
b11 0
b1000 4
#187500
0$
b10000 2
07
#188750
1$
17
b1 N
b110110000000000000000000000000000 I
0Q
b0 P
b1 R
b10 R
b11 R
1Q
b11 P
b100 R
b101 R
b110 R
b111 R
b0 R
b1000 O
b1000 O
b1000 O
b0 O
b0 O
b0 O
b0 O
b0 O
b0 E
0Q
b0 P
b1 R
b10 R
b11 R
b100 R
b101 R
b110 R
b111 R
b0 R
0B
b0 C
b0 0
0/
b0 4
#190000
0$
b10001 2
07
#191250
1$
17
#192500
0$
07
#193750
1$
17
#195000
0$
07
#196250
1$
17
#197500
0$
01
0D
07
#198750
1$
17
#200000
0$
1&
b111 (
b0 )
b0 *
b0 =
b0 <
b111 ;
19
07
#201250
1$
17
b1000000000000000000000000000000000 M
b1110000000000000000000000000000000 M
b1111110000000000000000000000000000 M
b0 O
b0 O
b0 O
b0 O
b0 O
b0 O
b0 O
b10000000 O
b1000 E
b1 R
b10 R
b11 R
b100 R
b101 R
b110 R
b111 R
1Q
b111 P
b0 R
1B
b111 C
b111 0
1/
b1000 4
#202500
0$
0&
09
07
#203750
1$
17
#205000
0$
07
#206250
1$
17
#207500
0$
07
#208750
1$
17
#210000
0$
07
#211250
1$
17
#212500
0$
07
#213750
1$
17
#215000
0$
b10010 2
07
#216250
1$
17
#217500
0$
11
1D
07
#218750
1$
17
b10 N
b111110000000000000000000000000000 M
0Q
b0 P
b10 R
b11 R
b100 R
b101 R
b110 R
b111 R
1Q
b111 P
b0 R
b1 R
b10000000 O
b10000000 O
b10000000 O
b10000000 O
b10000000 O
b10000000 O
b10000000 O
b0 O
b0 E
0Q
b0 P
b10 R
b11 R
b100 R
b101 R
b110 R
b111 R
b0 R
b1 R
0B
b0 C
b0 0
0/
b0 4
#220000
0$
b10011 2
07
