dice_new/tb/cgra_core/ldst_unit/temporal_coalescing_unit/temporal_coalescing_testbench.vcd
$date
	Sat Jun 28 22:44:46 2025
$end

$version
	Synopsys VCS version T-2022.06_Full64
$end

$timescale
	10ps
$end

$comment Csum: 1 e364c6b22d7f965b $end


$scope module temporal_coalescing_unit_testbench $end
$var reg 1 ! clk $end
$var reg 1 " rst_n $end
$var reg 1 # incmd_valid $end
$var reg 4 $ incmd_block_id [3:0] $end
$var reg 10 % incmd_tid [9:0] $end
$var reg 1 & incmd_write_enable $end
$var reg 64 ' incmd_write_data [63:0] $end
$var reg 8 ( incmd_write_mask [7:0] $end
$var reg 64 ) incmd_address [63:0] $end
$var reg 2 * incmd_size [1:0] $end
$var reg 7 + incmd_ld_dest_reg [6:0] $end
$var reg 1 , outcmd_ready $end
$var reg 1 - incmd_ready $end
$var reg 1 . outcmd_valid $end
$var reg 4 / outcmd_block_id [3:0] $end
$var reg 10 0 outcmd_base_tid [9:0] $end
$var reg 8 1 outcmd_tid_bitmap [7:0] $end
$var reg 1 2 outcmd_write_enable $end
$var reg 256 3 outcmd_write_data [255:0] $end
$var reg 32 4 outcmd_write_mask [31:0] $end
$var reg 64 5 outcmd_address [63:0] $end
$var reg 2 6 outcmd_size [1:0] $end
$var reg 7 7 outcmd_ld_dest_reg [6:0] $end
$var reg 40 8 outcmd_address_map [39:0] $end
$var reg 32 9 test_count [31:0] $end
$var reg 32 : pass_count [31:0] $end
$var reg 32 ; fail_count [31:0] $end
$var reg 32 < commands_sent [31:0] $end
$var reg 32 = commands_received [31:0] $end
$var reg 1 > driver_active $end
$var reg 1 ? checker_active $end
$var reg 1 @ test_complete $end
$var reg 1 A cmd_match $end
$var reg 256 B expected_write_data [255:0] $end
$var reg 32 C real_tid_base [31:0] $end

$scope begin unnamed$$_vcs_6 $end

$scope begin unnamed$$_2 $end
$upscope $end


$scope begin unnamed$$_3 $end

$scope begin unnamed$$_4 $end
$upscope $end

$upscope $end


$scope begin unnamed$$_5 $end
$upscope $end


$scope begin unnamed$$_6 $end
$upscope $end


$scope begin unnamed$$_7 $end
$upscope $end


$scope begin unnamed$$_8 $end
$upscope $end


$scope begin unnamed$$_9 $end
$upscope $end


$scope begin unnamed$$_10 $end
$upscope $end

$upscope $end


$scope begin unnamed$$_vcs_8 $end
$upscope $end


$scope begin unnamed$$_vcs_2 $end
$upscope $end


$scope begin unnamed$$_vcs_3 $end
$upscope $end


$scope begin unnamed$$_vcs_4 $end

$scope begin unnamed$$_0 $end
$upscope $end

$upscope $end


$scope begin unnamed$$_vcs_5 $end

$scope begin unnamed$$_1 $end
$upscope $end

$upscope $end


$scope begin unnamed$$_vcs_7 $end
$upscope $end


$scope module dut $end
$var reg 1 D clk $end
$var reg 1 E rst_n $end
$var reg 1 F incmd_valid $end
$var reg 4 G incmd_block_id [3:0] $end
$var reg 10 H incmd_tid [9:0] $end
$var reg 1 I incmd_write_enable $end
$var reg 64 J incmd_write_data [63:0] $end
$var reg 8 K incmd_write_mask [7:0] $end
$var reg 64 L incmd_address [63:0] $end
$var reg 2 M incmd_size [1:0] $end
$var reg 7 N incmd_ld_dest_reg [6:0] $end
$var reg 1 O incmd_ready $end
$var reg 1 P outcmd_valid $end
$var reg 4 Q outcmd_block_id [3:0] $end
$var reg 10 R outcmd_base_tid [9:0] $end
$var reg 8 S outcmd_tid_bitmap [7:0] $end
$var reg 1 T outcmd_write_enable $end
$var reg 256 U outcmd_write_data [255:0] $end
$var reg 32 V outcmd_write_mask [31:0] $end
$var reg 64 W outcmd_address [63:0] $end
$var reg 2 X outcmd_size [1:0] $end
$var reg 7 Y outcmd_ld_dest_reg [6:0] $end
$var reg 40 Z outcmd_address_map [39:0] $end
$var reg 1 [ outcmd_ready $end
$var reg 3 \ interval_counter [2:0] $end
$var reg 1 ] interval_timeout $end
$var reg 1 ^ buffer_incmd_valid $end
$var reg 1 _ buffer_update_new $end
$var reg 1 ` buffer_clear $end
$var reg 1 a buffer_can_coalesce $end
$var reg 1 b buffer_outcmd_valid $end
$var reg 4 c buffer_outcmd_block_id [3:0] $end
$var reg 10 d buffer_outcmd_base_tid [9:0] $end
$var reg 8 e buffer_outcmd_tid_bitmap [7:0] $end
$var reg 1 f buffer_outcmd_write_enable $end
$var reg 256 g buffer_outcmd_write_data [255:0] $end
$var reg 32 h buffer_outcmd_write_mask [31:0] $end
$var reg 64 i buffer_outcmd_address [63:0] $end
$var reg 2 j buffer_outcmd_size [1:0] $end
$var reg 7 k buffer_outcmd_ld_dest_reg [6:0] $end
$var reg 40 l buffer_outcmd_address_map [39:0] $end
$var reg 1 m output_valid $end
$var reg 1 n fifo_full $end
$var reg 1 o fifo_not_full $end
$var reg 1 p fifo_empty $end
$var reg 1 q fifo_pop $end
$var reg 64 r incmd_base_address [63:0] $end

$scope module coalesce_buffer_inst $end
$var reg 1 s clk $end
$var reg 1 t rst_n $end
$var reg 1 u clear $end
$var reg 1 v update_new $end
$var reg 1 w incmd_valid $end
$var reg 4 x incmd_block_id [3:0] $end
$var reg 10 y incmd_tid [9:0] $end
$var reg 1 z incmd_write_enable $end
$var reg 64 { incmd_write_data [63:0] $end
$var reg 8 | incmd_write_mask [7:0] $end
$var reg 64 } incmd_address [63:0] $end
$var reg 2 ~ incmd_size [1:0] $end
$var reg 7 "! incmd_ld_dest_reg [6:0] $end
$var reg 1 "" can_coalesce $end
$var reg 1 "# outcmd_valid $end
$var reg 4 "$ outcmd_block_id [3:0] $end
$var reg 10 "% outcmd_base_tid [9:0] $end
$var reg 8 "& outcmd_tid_bitmap [7:0] $end
$var reg 1 "' outcmd_write_enable $end
$var reg 256 "( outcmd_write_data [255:0] $end
$var reg 32 ") outcmd_write_mask [31:0] $end
$var reg 64 "* outcmd_address [63:0] $end
$var reg 2 "+ outcmd_size [1:0] $end
$var reg 7 ", outcmd_ld_dest_reg [6:0] $end
$var reg 40 "- outcmd_address_map [39:0] $end
$var reg 1 ". outcmd_valid_next $end
$var reg 4 "/ outcmd_block_id_next [3:0] $end
$var reg 10 "0 outcmd_base_tid_next [9:0] $end
$var reg 32 "1 outcmd_tid_bitmap_next [31:0] $end
$var reg 1 "2 outcmd_write_enable_next $end
$var reg 256 "3 outcmd_write_data_next [255:0] $end
$var reg 32 "4 outcmd_write_mask_next [31:0] $end
$var reg 64 "5 outcmd_address_next [63:0] $end
$var reg 2 "6 outcmd_size_next [1:0] $end
$var reg 7 "7 outcmd_ld_dest_reg_next [6:0] $end
$var reg 40 "8 outcmd_address_map_next [39:0] $end
$var reg 1 "9 same_block_id $end
$var reg 1 ": same_ld_dest_reg $end
$var reg 1 "; same_tid_chunk $end
$var reg 1 "< same_rd_wr $end
$var reg 1 "= same_base_address $end
$var reg 1 "> same_write_enable $end
$var reg 10 "? incmd_base_tid [9:0] $end
$var reg 3 "@ incmd_tid_offset [2:0] $end
$var reg 64 "A incmd_base_address [63:0] $end
$var reg 5 "B incmd_address_offset [4:0] $end
$var reg 32 "C incmd_coalesce_mask [31:0] $end
$var reg 4 "D incmd_actual_size [3:0] $end

$scope begin unnamed$$_0 $end
$upscope $end


$scope begin unnamed$$_1 $end
$upscope $end


$scope begin unnamed$$_2 $end
$upscope $end

$upscope $end


$scope module output_fifo $end
$var reg 1 "E clk $end
$var reg 1 "F rst_n $end
$var reg 1 "G push $end
$var reg 424 "H push_data [423:0] $end
$var reg 1 "I pop $end
$var reg 424 "J pop_data [423:0] $end
$var reg 1 "K pop_data_valid $end
$var reg 1 "L empty $end
$var reg 1 "M full $end
$var reg 2 "N count [1:0] $end
$var reg 2 "O write_ptr [1:0] $end
$var reg 2 "P read_ptr [1:0] $end
$var reg 1 "Q push_enable $end
$var reg 1 "R pop_enable $end

$scope begin unnamed$$_0 $end
$upscope $end

$upscope $end

$upscope $end

$upscope $end

$enddefinitions $end

#0
$dumpvars
0a
0`
0^
0b
0f
0_
0""
0?
0u
0!
xA
0w
0z
0"#
0"'
0t
0>
1O
0F
0I
0[
0P
0T
0E
1"L
1p
0n
1o
0q
0"M
1-
0#
0&
0]
0,
0.
0".
02
0"2
0"F
0m
0"I
0"K
0"R
0"G
0"Q
0"
1"=
1"9
1":
1"<
1";
1">
0@
0v
b0000000000000000000000000000000000000000 l
b0000000000000000000000000000000000000000 8
b0000000000000000000000000000000000000000 "8
b0000000000000000000000000000000000000000000000000000000000000000 i
b0000000000 d
b0000 c
b0000000 k
b10 j
b00000000 e
b0000000000000000000000000000000000000000000000000000000000000000000000000000000000000000000000000000000000000000000000000000000000000000000000000000000000000000000000000000000000000000000000000000000000000000000000000000000000000000000000000000000000000000 g
b11111111111111111111111111111111 h
b0000000000000000000000000000000000000000 "-
b0000000000000000000000000000000000000000000000000000000000000000 }
b0000000000000000000000000000000000000000000000000000000000000000 "A
b0000 x
b0000000 "!
b00 ~
b0000000000 y
b0000000000000000000000000000000000000000000000000000000000000000 {
b00000000 |
b0000000000000000000000000000000000000000000000000000000000000000 "*
b0000000000 "%
b0000 "$
b0000000 ",
b10 "+
b00000000 "&
b0000000000000000000000000000000000000000000000000000000000000000000000000000000000000000000000000000000000000000000000000000000000000000000000000000000000000000000000000000000000000000000000000000000000000000000000000000000000000000000000000000000000000000 "(
b11111111111111111111111111111111 ")
b00 "N
b0000000000000000000000000000000000000000 Z
b0000000000000000000000000000000000000000000000000000000000000000 L
b0000 G
b0000000 N
b00 M
b0000000000 H
b0000000000000000000000000000000000000000000000000000000000000000 J
b00000000 K
b0000000000000000000000000000000000000000000000000000000000000000 W
b0000000000 R
b0000 Q
b0000000 Y
b00 X
b00000000 S
b0000000000000000000000000000000000000000000000000000000000000000000000000000000000000000000000000000000000000000000000000000000000000000000000000000000000000000000000000000000000000000000000000000000000000000000000000000000000000000000000000000000000000000 U
b00000000000000000000000000000000 V
bxxxxxxxxxxxxxxxxxxxxxxxxxxxxxxxxxxxxxxxxxxxxxxxxxxxxxxxxxxxxxxxxxxxxxxxxxxxxxxxxxxxxxxxxxxxxxxxxxxxxxxxxxxxxxxxxxxxxxxxxxxxxxxxxxxxxxxxxxxxxxxxxxxxxxxxxxxxxxxxxxxxxxxxxxxxxxxxxxxxxxxxxxxxxxxxxxxxxxxxxxxxxxxxxxxxxxxxxxxxxxxxxxxxxxxxxxxxxxxxxxxxxxxxxxxxxxxxx B
b0001 "D
b0000000000000000000000000000000000000000000000000000000000000000 )
b00000 "B
b0000000000000000000000000000000000000000000000000000000000000000 r
b0000000000 "?
b0000 $
b11111111111111111111111111111110 "C
b0000000 +
b00 *
b0000000000 %
b000 "@
b0000000000000000000000000000000000000000000000000000000000000000 '
b00000000 (
b000 \
b0000000000000000000000000000000000000000000000000000000000000000 5
b0000000000000000000000000000000000000000000000000000000000000000 "5
b0000000000 0
b0000000000 "0
b0000 /
b0000 "/
b0000000 7
b0000000 "7
b00 6
b10 "6
b00000000 1
b00000000000000000000000000000000 "1
b0000000000000000000000000000000000000000000000000000000000000000000000000000000000000000000000000000000000000000000000000000000000000000000000000000000000000000000000000000000000000000000000000000000000000000000000000000000000000000000000000000000000000000 3
b0000000000000000000000000000000000000000000000000000000000000000000000000000000000000000000000000000000000000000000000000000000000000000000000000000000000000000000000000000000000000000000000000000000000000000000000000000000000000000000000000000000000000000 "3
b00000000000000000000000000000000 4
b11111111111111111111111111111111 "4
b0000000000000000000000000000000000000000000000000000000000000000000000000000000000000000000000000000000000000000000000000000000000000000000000000000000000000000000000000000000000000000000000000000000000000000000000000000000000000000000000000000000000000000000000000000000000000000000000000000000000000000000000000000000000000000000000000000000000000000000000000000000000000000000000000000000000000000000000000000000000000000 "J
b0000000000000000000000000000000000000000000000000000000000000000000000000000000000000000000000000000000000000000000000000000000000000000000000000000000000000000000000000000000000000000000000000000000000000000000000000000000000000000000000000000000000000000000000000000000000000001111111111111111111111111111111100000000000000000000000000000000000000000000000000000000000000001000000000000000000000000000000000000000000000000 "H
b00 "P
b00 "O
b00000000000000000000000000000000 =
b00000000000000000000000000000000 <
b00000000000000000000000000000000 ;
b00000000000000000000000000000000 :
b00000000000000000000000000000000 C
b00000000000000000000000000000000 9
0D
0s
0"E
$end
#125
1!
1D
1s
1"E
#250
0!
0D
0s
0"E
#375
1!
1D
1s
1"E
#500
0!
0D
0s
0"E
#625
1!
1D
1s
1"E
#750
0!
0D
0s
0"E
#875
1!
1D
1s
1"E
#1000
0!
0D
0s
0"E
#1125
1!
1D
1s
1"E
1"
1E
1"F
1t
#1250
0!
0D
0s
0"E
#1375
1!
1D
1s
1"E
b0000000000000000000000000000011100000000000000000000000000000110000000000000000000000000000001010000000000000000000000000000010000000000000000000000000000000011000000000000000000000000000000100000000000000000000000000000000100000000000000000000000000000000 B
b0000000000000000000000000000111100000000000000000000000000001110000000000000000000000000000011010000000000000000000000000000110000000000000000000000000000001011000000000000000000000000000010100000000000000000000000000000100100000000000000000000000000001000 B
b00000000000000000000000000001000 C
b0000000000000000000000000001011100000000000000000000000000010110000000000000000000000000000101010000000000000000000000000001010000000000000000000000000000010011000000000000000000000000000100100000000000000000000000000001000100000000000000000000000000010000 B
b00000000000000000000000000010000 C
b0000000000000000000000000001111100000000000000000000000000011110000000000000000000000000000111010000000000000000000000000001110000000000000000000000000000011011000000000000000000000000000110100000000000000000000000000001100100000000000000000000000000011000 B
b00000000000000000000000000011000 C
b0000000000000000000000000010011100000000000000000000000000100110000000000000000000000000001001010000000000000000000000000010010000000000000000000000000000100011000000000000000000000000001000100000000000000000000000000010000100000000000000000000000000100000 B
b00000000000000000000000000100000 C
b0000000000000000000000000010111100000000000000000000000000101110000000000000000000000000001011010000000000000000000000000010110000000000000000000000000000101011000000000000000000000000001010100000000000000000000000000010100100000000000000000000000000101000 B
b00000000000000000000000000101000 C
b0000000000000000000000000011011100000000000000000000000000110110000000000000000000000000001101010000000000000000000000000011010000000000000000000000000000110011000000000000000000000000001100100000000000000000000000000011000100000000000000000000000000110000 B
b00000000000000000000000000110000 C
b0000000000000000000000000011111100000000000000000000000000111110000000000000000000000000001111010000000000000000000000000011110000000000000000000000000000111011000000000000000000000000001110100000000000000000000000000011100100000000000000000000000000111000 B
b00000000000000000000000000111000 C
b0000000000000000000000000100011100000000000000000000000001000110000000000000000000000000010001010000000000000000000000000100010000000000000000000000000001000011000000000000000000000000010000100000000000000000000000000100000100000000000000000000000001000000 B
b00000000000000000000000001000000 C
b0000000000000000000000000100111100000000000000000000000001001110000000000000000000000000010011010000000000000000000000000100110000000000000000000000000001001011000000000000000000000000010010100000000000000000000000000100100100000000000000000000000001001000 B
b00000000000000000000000001001000 C
b0000000000000000000000000101011100000000000000000000000001010110000000000000000000000000010101010000000000000000000000000101010000000000000000000000000001010011000000000000000000000000010100100000000000000000000000000101000100000000000000000000000001010000 B
b00000000000000000000000001010000 C
b0000000000000000000000000101111100000000000000000000000001011110000000000000000000000000010111010000000000000000000000000101110000000000000000000000000001011011000000000000000000000000010110100000000000000000000000000101100100000000000000000000000001011000 B
b00000000000000000000000001011000 C
b0000000000000000000000000110011100000000000000000000000001100110000000000000000000000000011001010000000000000000000000000110010000000000000000000000000001100011000000000000000000000000011000100000000000000000000000000110000100000000000000000000000001100000 B
b00000000000000000000000001100000 C
b0000000000000000000000000110111100000000000000000000000001101110000000000000000000000000011011010000000000000000000000000110110000000000000000000000000001101011000000000000000000000000011010100000000000000000000000000110100100000000000000000000000001101000 B
b00000000000000000000000001101000 C
b0000000000000000000000000111011100000000000000000000000001110110000000000000000000000000011101010000000000000000000000000111010000000000000000000000000001110011000000000000000000000000011100100000000000000000000000000111000100000000000000000000000001110000 B
b00000000000000000000000001110000 C
b0000000000000000000000000111111100000000000000000000000001111110000000000000000000000000011111010000000000000000000000000111110000000000000000000000000001111011000000000000000000000000011110100000000000000000000000000111100100000000000000000000000001111000 B
b00000000000000000000000001111000 C
1>
1?
#1500
0!
0D
0s
0"E
1#
1F
1^
1w
b0001 $
b0001 G
b0001 x
0"9
1&
1I
1z
0"<
0">
b10 *
b10 M
b10 ~
b0001010 +
b0001010 N
b0001010 "!
1,
1[
b0001010 "7
b11111111111111111111111111111110 "4
1"2
b00000000000000000000000000000001 "1
b0001 "/
1".
1_
1v
b0100 "D
0":
b11111111111111111111111111110000 "C
b11111111111111111111111111110000 "4
#1625
1!
1D
1s
1"E
1"#
1b
b0001 "$
b0001 c
1"9
b00000001 "&
b00000001 e
1"'
1f
1"<
1">
b11111111111111111111111111110000 ")
b11111111111111111111111111110000 h
b0001010 ",
b0001010 k
1m
1`
1"G
1u
b0001000000000000000001100000000000000000000000000000000000000000000000000000000000000000000000000000000000000000000000000000000000000000000000000000000000000000000000000000000000000000000000000000000000000000000000000000000000000000000000000000000000000000000000000000000000000001111111111111111111111111111000000000000000000000000000000000000000000000000000000000000000000001000010100000000000000000000000000000000000000000 "H
1":
1"Q
1""
1a
0m
0`
0"G
0u
0_
0v
0"Q
#1750
0!
0D
0s
0"E
b0000000001 %
b0000000001 H
b0000000001 y
b001 "@
b0000000000000000000000000000000000000000000000000000000000000001 '
b0000000000000000000000000000000000000000000000000000000000000001 J
b0000000000000000000000000000000000000000000000000000000000000001 {
b0000000000000000000000000000000000000000000000000000000000000100 )
b0000000000000000000000000000000000000000000000000000000000000100 L
b0000000000000000000000000000000000000000000000000000000000000100 }
b00100 "B
b11111111111111111111111100000000 "4
b0000000000000000000000000000000000000000000000000000000000000000000000000000000000000000000000000000000000000000000000000000000000000000000000000000000000000000000000000000000000000000000000000000000000000000000000000000000100000000000000000000000000000000 "3
b00000000000000000000000000000011 "1
b11111111111111111111111100001111 "C
#1875
1!
1D
1s
1"E
b001 \
b00000011 "&
b00000011 e
b0000000000000000000000000000000000000000000000000000000000000000000000000000000000000000000000000000000000000000000000000000000000000000000000000000000000000000000000000000000000000000000000000000000000000000000000000000000100000000000000000000000000000000 "(
b0000000000000000000000000000000000000000000000000000000000000000000000000000000000000000000000000000000000000000000000000000000000000000000000000000000000000000000000000000000000000000000000000000000000000000000000000000000100000000000000000000000000000000 g
b11111111111111111111111100000000 ")
b11111111111111111111111100000000 h
b0001000000000000000011100000000000000000000000000000000000000000000000000000000000000000000000000000000000000000000000000000000000000000000000000000000000000000000000000000000000000000000000000000000000000000000000000000000000000000000000000000001000000000000000000000000000000001111111111111111111111110000000000000000000000000000000000000000000000000000000000000000000000001000010100000000000000000000000000000000000000000 "H
#2000
0!
0D
0s
0"E
b0000000010 %
b0000000010 H
b0000000010 y
b010 "@
b0000000000000000000000000000000000000000000000000000000000000010 '
b0000000000000000000000000000000000000000000000000000000000000010 J
b0000000000000000000000000000000000000000000000000000000000000010 {
b0000000000000000000000000000000000000000000000000000000000001000 )
b0000000000000000000000000000000000000000000000000000000000001000 L
b0000000000000000000000000000000000000000000000000000000000001000 }
b01000 "B
b11111111111111111111000000000000 "4
b0000000000000000000000000000000000000000000000000000000000000000000000000000000000000000000000000000000000000000000000000000000000000000000000000000000000000000000000000000000000000000000000100000000000000000000000000000000100000000000000000000000000000000 "3
b00000000000000000000000000000111 "1
b11111111111111111111000011111111 "C
#2125
1!
1D
1s
1"E
b010 \
b00000111 "&
b00000111 e
b0000000000000000000000000000000000000000000000000000000000000000000000000000000000000000000000000000000000000000000000000000000000000000000000000000000000000000000000000000000000000000000000100000000000000000000000000000000100000000000000000000000000000000 "(
b0000000000000000000000000000000000000000000000000000000000000000000000000000000000000000000000000000000000000000000000000000000000000000000000000000000000000000000000000000000000000000000000100000000000000000000000000000000100000000000000000000000000000000 g
b11111111111111111111000000000000 ")
b11111111111111111111000000000000 h
b0001000000000000000111100000000000000000000000000000000000000000000000000000000000000000000000000000000000000000000000000000000000000000000000000000000000000000000000000000000000000000000000000000000000000000000001000000000000000000000000000000001000000000000000000000000000000001111111111111111111100000000000000000000000000000000000000000000000000000000000000000000000000001000010100000000000000000000000000000000000000000 "H
#2250
0!
0D
0s
0"E
b0000000011 %
b0000000011 H
b0000000011 y
b011 "@
b0000000000000000000000000000000000000000000000000000000000000011 '
b0000000000000000000000000000000000000000000000000000000000000011 J
b0000000000000000000000000000000000000000000000000000000000000011 {
b0000000000000000000000000000000000000000000000000000000000001100 )
b0000000000000000000000000000000000000000000000000000000000001100 L
b0000000000000000000000000000000000000000000000000000000000001100 }
b01100 "B
b11111111111111110000000000000000 "4
b0000000000000000000000000000000000000000000000000000000000000000000000000000000000000000000000000000000000000000000000000000000000000000000000000000000000000011000000000000000000000000000000100000000000000000000000000000000100000000000000000000000000000000 "3
b00000000000000000000000000001111 "1
b11111111111111110000111111111111 "C
#2375
1!
1D
1s
1"E
b011 \
b00001111 "&
b00001111 e
b0000000000000000000000000000000000000000000000000000000000000000000000000000000000000000000000000000000000000000000000000000000000000000000000000000000000000011000000000000000000000000000000100000000000000000000000000000000100000000000000000000000000000000 "(
b0000000000000000000000000000000000000000000000000000000000000000000000000000000000000000000000000000000000000000000000000000000000000000000000000000000000000011000000000000000000000000000000100000000000000000000000000000000100000000000000000000000000000000 g
b11111111111111110000000000000000 ")
b11111111111111110000000000000000 h
b0001000000000000001111100000000000000000000000000000000000000000000000000000000000000000000000000000000000000000000000000000000000000000000000000000000000000000000000000000000000000110000000000000000000000000000001000000000000000000000000000000001000000000000000000000000000000001111111111111111000000000000000000000000000000000000000000000000000000000000000000000000000000001000010100000000000000000000000000000000000000000 "H
#2500
0!
0D
0s
0"E
b0000000100 %
b0000000100 H
b0000000100 y
b100 "@
b0000000000000000000000000000000000000000000000000000000000000100 '
b0000000000000000000000000000000000000000000000000000000000000100 J
b0000000000000000000000000000000000000000000000000000000000000100 {
b0000000000000000000000000000000000000000000000000000000000010000 )
b0000000000000000000000000000000000000000000000000000000000010000 L
b0000000000000000000000000000000000000000000000000000000000010000 }
b10000 "B
b11111111111100000000000000000000 "4
b0000000000000000000000000000000000000000000000000000000000000000000000000000000000000000000000000000000000000000000000000000010000000000000000000000000000000011000000000000000000000000000000100000000000000000000000000000000100000000000000000000000000000000 "3
b00000000000000000000000000011111 "1
b11111111111100001111111111111111 "C
#2625
1!
1D
1s
1"E
b100 \
b00011111 "&
b00011111 e
b0000000000000000000000000000000000000000000000000000000000000000000000000000000000000000000000000000000000000000000000000000010000000000000000000000000000000011000000000000000000000000000000100000000000000000000000000000000100000000000000000000000000000000 "(
b0000000000000000000000000000000000000000000000000000000000000000000000000000000000000000000000000000000000000000000000000000010000000000000000000000000000000011000000000000000000000000000000100000000000000000000000000000000100000000000000000000000000000000 g
b11111111111100000000000000000000 ")
b11111111111100000000000000000000 h
b0001000000000000011111100000000000000000000000000000000000000000000000000000000000000000000000000000000000000000000000000000000000000000000000000000100000000000000000000000000000000110000000000000000000000000000001000000000000000000000000000000001000000000000000000000000000000001111111111110000000000000000000000000000000000000000000000000000000000000000000000000000000000001000010100000000000000000000000000000000000000000 "H
#2750
0!
0D
0s
0"E
b0000000101 %
b0000000101 H
b0000000101 y
b101 "@
b0000000000000000000000000000000000000000000000000000000000000101 '
b0000000000000000000000000000000000000000000000000000000000000101 J
b0000000000000000000000000000000000000000000000000000000000000101 {
b0000000000000000000000000000000000000000000000000000000000010100 )
b0000000000000000000000000000000000000000000000000000000000010100 L
b0000000000000000000000000000000000000000000000000000000000010100 }
b10100 "B
b11111111000000000000000000000000 "4
b0000000000000000000000000000000000000000000000000000000000000000000000000000000000000000000001010000000000000000000000000000010000000000000000000000000000000011000000000000000000000000000000100000000000000000000000000000000100000000000000000000000000000000 "3
b00000000000000000000000000111111 "1
b11111111000011111111111111111111 "C
#2875
1!
1D
1s
1"E
b101 \
b00111111 "&
b00111111 e
b0000000000000000000000000000000000000000000000000000000000000000000000000000000000000000000001010000000000000000000000000000010000000000000000000000000000000011000000000000000000000000000000100000000000000000000000000000000100000000000000000000000000000000 "(
b0000000000000000000000000000000000000000000000000000000000000000000000000000000000000000000001010000000000000000000000000000010000000000000000000000000000000011000000000000000000000000000000100000000000000000000000000000000100000000000000000000000000000000 g
b11111111000000000000000000000000 ")
b11111111000000000000000000000000 h
b0001000000000000111111100000000000000000000000000000000000000000000000000000000000000000000000000000000000000000000010100000000000000000000000000000100000000000000000000000000000000110000000000000000000000000000001000000000000000000000000000000001000000000000000000000000000000001111111100000000000000000000000000000000000000000000000000000000000000000000000000000000000000001000010100000000000000000000000000000000000000000 "H
#3000
0!
0D
0s
0"E
b0000000110 %
b0000000110 H
b0000000110 y
b110 "@
b0000000000000000000000000000000000000000000000000000000000000110 '
b0000000000000000000000000000000000000000000000000000000000000110 J
b0000000000000000000000000000000000000000000000000000000000000110 {
b0000000000000000000000000000000000000000000000000000000000011000 )
b0000000000000000000000000000000000000000000000000000000000011000 L
b0000000000000000000000000000000000000000000000000000000000011000 }
b11000 "B
b11110000000000000000000000000000 "4
b0000000000000000000000000000000000000000000000000000000000000110000000000000000000000000000001010000000000000000000000000000010000000000000000000000000000000011000000000000000000000000000000100000000000000000000000000000000100000000000000000000000000000000 "3
b00000000000000000000000001111111 "1
b11110000111111111111111111111111 "C
#3125
1!
1D
1s
1"E
b110 \
b01111111 "&
b01111111 e
b0000000000000000000000000000000000000000000000000000000000000110000000000000000000000000000001010000000000000000000000000000010000000000000000000000000000000011000000000000000000000000000000100000000000000000000000000000000100000000000000000000000000000000 "(
b0000000000000000000000000000000000000000000000000000000000000110000000000000000000000000000001010000000000000000000000000000010000000000000000000000000000000011000000000000000000000000000000100000000000000000000000000000000100000000000000000000000000000000 g
b11110000000000000000000000000000 ")
b11110000000000000000000000000000 h
b0001000000000001111111100000000000000000000000000000000000000000000000000000000000001100000000000000000000000000000010100000000000000000000000000000100000000000000000000000000000000110000000000000000000000000000001000000000000000000000000000000001000000000000000000000000000000001111000000000000000000000000000000000000000000000000000000000000000000000000000000000000000000001000010100000000000000000000000000000000000000000 "H
#3250
0!
0D
0s
0"E
b0000000111 %
b0000000111 H
b0000000111 y
b111 "@
b0000000000000000000000000000000000000000000000000000000000000111 '
b0000000000000000000000000000000000000000000000000000000000000111 J
b0000000000000000000000000000000000000000000000000000000000000111 {
b0000000000000000000000000000000000000000000000000000000000011100 )
b0000000000000000000000000000000000000000000000000000000000011100 L
b0000000000000000000000000000000000000000000000000000000000011100 }
b11100 "B
b00000000000000000000000000000000 "4
b0000000000000000000000000000011100000000000000000000000000000110000000000000000000000000000001010000000000000000000000000000010000000000000000000000000000000011000000000000000000000000000000100000000000000000000000000000000100000000000000000000000000000000 "3
b00000000000000000000000011111111 "1
b00001111111111111111111111111111 "C
#3375
1!
1D
1s
1"E
b111 \
1]
b11111111 "&
b11111111 e
b0000000000000000000000000000011100000000000000000000000000000110000000000000000000000000000001010000000000000000000000000000010000000000000000000000000000000011000000000000000000000000000000100000000000000000000000000000000100000000000000000000000000000000 "(
b0000000000000000000000000000011100000000000000000000000000000110000000000000000000000000000001010000000000000000000000000000010000000000000000000000000000000011000000000000000000000000000000100000000000000000000000000000000100000000000000000000000000000000 g
b00000000000000000000000000000000 ")
b00000000000000000000000000000000 h
1m
1`
1"G
1u
b0001000000000011111111100000000000000000000000000000111000000000000000000000000000001100000000000000000000000000000010100000000000000000000000000000100000000000000000000000000000000110000000000000000000000000000001000000000000000000000000000000001000000000000000000000000000000000000000000000000000000000000000000000000000000000000000000000000000000000000000000000000000000001000010100000000000000000000000000000000000000000 "H
1"Q
#3500
0!
0D
0s
0"E
b0000001000 %
b0000001000 H
b0000001000 y
b000 "@
b0000001000 "?
0";
b0000000000000000000000000000000000000000000000000000000000001000 '
b0000000000000000000000000000000000000000000000000000000000001000 J
b0000000000000000000000000000000000000000000000000000000000001000 {
b0000000000000000000000000000000000000000000000000000000000100000 )
b0000000000000000000000000000000000000000000000000000000000100000 L
b0000000000000000000000000000000000000000000000000000000000100000 }
b00000 "B
b0000000000000000000000000000000000000000000000000000000000100000 "A
0"=
b0000000000000000000000000000000000000000000000000000000000100000 r
b0000000000000000000000000000011100000000000000000000000000000110000000000000000000000000000001010000000000000000000000000000010000000000000000000000000000000011000000000000000000000000000000100000000000000000000000000000000100000000000000000000000000001000 "3
0""
0a
b11111111111111111111111111110000 "C
b0000000000000000000000000000011100000000000000000000000000000110000000000000000000000000000001010000000000000000000000000000010000000000000000000000000000000011000000000000000000000000000000100000000000000000000000000000000100000000000000000000000000000000 "3
1_
1v
b0000000000000000000000000000000000000000000000000000000000100000 "5
b11111111111111111111111111110000 "4
b0000000000000000000000000000011100000000000000000000000000000110000000000000000000000000000001010000000000000000000000000000010000000000000000000000000000000011000000000000000000000000000000100000000000000000000000000000000100000000000000000000000000001000 "3
b00000000000000000000000000000001 "1
b0000001000 "0
